%!PS-Adobe-3.0 EPSF-3.0
%%Creator: MATLAB, The Mathworks, Inc.
%%Title: ../figs/bigsizes.eps
%%CreationDate: 11/14/98  05:04:11
%%DocumentNeededFonts: Helvetica
%%DocumentProcessColors: Cyan Magenta Yellow Black
%%LanguageLevel: 2
%%Pages: 1
%%BoundingBox:    70   196   550   600
%%EndComments

%%BeginProlog

% MathWorks dictionary
/MathWorks 150 dict begin

% definition operators
/bdef {bind def} bind def
/ldef {load def} bind def
/xdef {exch def} bdef
/xstore {exch store} bdef

% operator abbreviations
/c  /clip ldef
/cc /concat ldef
/cp /closepath ldef
/gr /grestore ldef
/gs /gsave ldef
/mt /moveto ldef
/np /newpath ldef
/cm /currentmatrix ldef
/sm /setmatrix ldef
/rc {rectclip} bdef
/rf {rectfill} bdef
/rm /rmoveto ldef
/rl /rlineto ldef
/s /show ldef
/sc {setcmykcolor} bdef
/sr /setrgbcolor ldef
/sg /setgray ldef
/w /setlinewidth ldef
/j /setlinejoin ldef
/cap /setlinecap ldef

% page state control
/pgsv () def
/bpage {/pgsv save def} bdef
/epage {pgsv restore} bdef
/bplot /gsave ldef
/eplot {stroke grestore} bdef

% orientation switch
/portraitMode 	0 def
/landscapeMode 	1 def

% coordinate system mappings
/dpi2point 0 def

% font control
/FontSize 0 def
/FMS {
	/FontSize xstore		%save size off stack
	findfont
	[FontSize 0 0 FontSize neg 0 0]
	makefont
	setfont
	}bdef

/reencode {
exch dup where
{pop load} {pop StandardEncoding} ifelse
exch
dup 3 1 roll
findfont dup length dict begin
  { 1 index /FID ne {def}{pop pop} ifelse } forall
  /Encoding exch def
  currentdict
end
definefont pop
} bdef

/isroman {
findfont /CharStrings get
/Agrave known
} bdef

/FMSR {
3 1 roll 1 index
dup isroman
{reencode} {pop pop} ifelse
exch FMS
} bdef

/csm {
	1 dpi2point div -1 dpi2point div scale
	neg translate
	landscapeMode eq {90 rotate} if
	} bdef

% line types: solid, dotted, dashed, dotdash
/SO { [] 0 setdash } bdef
/DO { [.5 dpi2point mul 4 dpi2point mul] 0 setdash } bdef
/DA { [6 dpi2point mul] 0 setdash } bdef
/DD { [.5 dpi2point mul 4 dpi2point mul 6 dpi2point mul 4 dpi2point mul] 0 setdash } bdef

% macros for lines and objects
/L {
	lineto
	stroke
	} bdef
/MP {
	3 1 roll moveto
	1 sub {rlineto} repeat
	} bdef
/AP {
	{rlineto} repeat
	} bdef
/PP {
	closepath eofill
	} bdef
/DP {
	closepath stroke
	} bdef
/MR {
	4 -2 roll moveto
	dup  0 exch rlineto
	exch 0 rlineto
	neg  0 exch rlineto
	closepath
	} bdef
/FR {
	MR stroke
	} bdef
/PR {
	MR fill
	} bdef
/L1i {
	{ currentfile picstr readhexstring pop } image
	} bdef

/tMatrix matrix def
/MakeOval {
	newpath
	tMatrix currentmatrix pop
	translate scale
	0 0 1 0 360 arc
	tMatrix setmatrix
	} bdef
/FO {
	MakeOval
	stroke
	} bdef
/PO {
	MakeOval
	fill
	} bdef

/PD {
	currentlinecap 1 setlinecap 3 1 roll 2 copy moveto lineto stroke setlinecap
	} bdef

/FA {
	newpath
	tMatrix currentmatrix pop
	translate scale
	0 0 1 5 -2 roll arc
	tMatrix setmatrix
	stroke
	} bdef
/PA {
	newpath
	tMatrix currentmatrix pop
	translate 0 0 moveto scale
	0 0 1 5 -2 roll arc
	closepath
	tMatrix setmatrix
	fill
	} bdef


/FAn {
	newpath
	tMatrix currentmatrix pop
	translate scale
	0 0 1 5 -2 roll arcn
	tMatrix setmatrix
	stroke
	} bdef
/PAn {
	newpath
	tMatrix currentmatrix pop
	translate 0 0 moveto scale
	0 0 1 5 -2 roll arcn
	closepath
	tMatrix setmatrix
	fill
	} bdef



currentdict end def
%%EndProlog

%%BeginSetup
MathWorks begin

0 cap

end
%%EndSetup

%%Page: 1 1
%%BeginPageSetup
%%PageBoundingBox:    70   196   550   600
MathWorks begin
bpage
%%EndPageSetup

%%BeginObject: graph1 1
bplot

/dpi2point 12 def
portraitMode 0216 7344 csm

  633   133  5756  4856 rc
88 dict begin %Colortable dictionary
/c0 { 0 0 0 sr} bdef
/c1 { 1 1 1 sr} bdef
/c2 { 1 0 0 sr} bdef
/c3 { 0 1 0 sr} bdef
/c4 { 0 0 1 sr} bdef
/c5 { 1 1 0 sr} bdef
/c6 { 1 0 1 sr} bdef
/c7 { 0 1 1 sr} bdef
1 j
1 sg
   0    0 6916 5185 rf
6 w
0 4225 5358 0 0 -4225 899 4613 4 MP
PP
-5358 0 0 4225 5358 0 0 -4225 899 4613 5 MP stroke
DO
4 w
SO
6 w
0 sg
 899 4613 mt 6257 4613 L
 899  388 mt 6257  388 L
 899 4613 mt  899  388 L
6257 4613 mt 6257  388 L
 899 4613 mt 6257 4613 L
 899 4613 mt  899  388 L
 899 4613 mt  899 4559 L
 899  388 mt  899  442 L
%%IncludeResource: font Helvetica
/Helvetica /ISOLatin1Encoding 120 FMSR

 816 4759 mt 
(2.4) s
1664 4613 mt 1664 4559 L
1664  388 mt 1664  442 L
1581 4759 mt 
(2.5) s
2430 4613 mt 2430 4559 L
2430  388 mt 2430  442 L
2347 4759 mt 
(2.6) s
3195 4613 mt 3195 4559 L
3195  388 mt 3195  442 L
3112 4759 mt 
(2.7) s
3961 4613 mt 3961 4559 L
3961  388 mt 3961  442 L
3878 4759 mt 
(2.8) s
4726 4613 mt 4726 4559 L
4726  388 mt 4726  442 L
4643 4759 mt 
(2.9) s
5492 4613 mt 5492 4559 L
5492  388 mt 5492  442 L
5459 4759 mt 
(3) s
6257 4613 mt 6257 4559 L
6257  388 mt 6257  442 L
6174 4759 mt 
(3.1) s
5987 4961 mt 
(x 10) s
%%IncludeResource: font Helvetica
/Helvetica /ISOLatin1Encoding 80 FMSR

6213 4887 mt 
(7) s
 899 4613 mt  953 4613 L
6257 4613 mt 6203 4613 L
%%IncludeResource: font Helvetica
/Helvetica /ISOLatin1Encoding 120 FMSR

 798 4657 mt 
(0) s
 899 4085 mt  953 4085 L
6257 4085 mt 6203 4085 L
 798 4129 mt 
(1) s
 899 3557 mt  953 3557 L
6257 3557 mt 6203 3557 L
 798 3601 mt 
(2) s
 899 3029 mt  953 3029 L
6257 3029 mt 6203 3029 L
 798 3073 mt 
(3) s
 899 2501 mt  953 2501 L
6257 2501 mt 6203 2501 L
 798 2545 mt 
(4) s
 899 1972 mt  953 1972 L
6257 1972 mt 6203 1972 L
 798 2016 mt 
(5) s
 899 1444 mt  953 1444 L
6257 1444 mt 6203 1444 L
 798 1488 mt 
(6) s
 899  916 mt  953  916 L
6257  916 mt 6203  916 L
 798  960 mt 
(7) s
 899  388 mt  953  388 L
6257  388 mt 6203  388 L
 798  432 mt 
(8) s
 899  334 mt 
(x 10) s
%%IncludeResource: font Helvetica
/Helvetica /ISOLatin1Encoding 80 FMSR

1125  260 mt 
(6) s
 899 4613 mt 6257 4613 L
 899  388 mt 6257  388 L
 899 4613 mt  899  388 L
6257 4613 mt 6257  388 L
gs 899 388 5359 4226 rc

gr 
/c8 { 1.000000 0.000000 0.000000 sr} bdef
c8
  36   36 1316 4567 FO
  36   36 1309 4567 FO
  36   36 1316 4567 FO
  36   36 1309 4567 FO
  36   36 1332 4306 FO
  36   36 1316 4299 FO
  36   36 1332 4306 FO
  36   36 1316 4299 FO
  36   36 1340 4312 FO
  36   36 1332 4298 FO
  36   36 1340 4312 FO
  36   36 1332 4298 FO
  36   36 1371 3970 FO
  36   36 1340 3954 FO
  36   36 1371 3970 FO
  36   36 1340 3954 FO
  36   36 1410 3648 FO
  36   36 1371 3626 FO
  36   36 1410 3648 FO
  36   36 1371 3626 FO
  36   36 1418 4170 FO
  36   36 1410 4172 FO
  36   36 1418 4170 FO
  36   36 1410 4172 FO
  36   36 1497 2565 FO
  36   36 1418 2544 FO
  36   36 1497 2565 FO
  36   36 1418 2544 FO
  36   36 1794 3218 FO
  36   36 1497 3247 FO
  36   36 1794 3218 FO
  36   36 1497 3247 FO
  36   36 2116 1054 FO
  36   36 1794 1092 FO
  36   36 2116 1054 FO
  36   36 1794 1092 FO
  36   36 2116 4064 FO
  36   36 2116 4083 FO
  36   36 2116 4064 FO
  36   36 2116 4083 FO
  36   36 2265 2045 FO
  36   36 2116 2040 FO
  36   36 2265 2045 FO
  36   36 2116 2040 FO
  36   36 2288 4268 FO
  36   36 2265 4259 FO
  36   36 2288 4268 FO
  36   36 2265 4259 FO
  36   36 2280 4535 FO
  36   36 2288 4540 FO
  36   36 2280 4535 FO
  36   36 2288 4540 FO
  36   36 2273 4211 FO
  36   36 2280 4204 FO
  36   36 2273 4211 FO
  36   36 2280 4204 FO
  36   36 2876 1293 FO
  36   36 2273 1396 FO
  36   36 2876 1293 FO
  36   36 2273 1396 FO
  36   36 3621  962 FO
  36   36 2876 1071 FO
  36   36 3621  962 FO
  36   36 2876 1071 FO
  36   36 4162  856 FO
  36   36 3621  925 FO
  36   36 4162  856 FO
  36   36 3621  925 FO
  36   36 4154 4334 FO
  36   36 4162 4325 FO
  36   36 4154 4334 FO
  36   36 4162 4325 FO
  36   36 4444 1191 FO
  36   36 4154 1222 FO
  36   36 4444 1191 FO
  36   36 4154 1222 FO
  36   36 4538 3486 FO
  36   36 4444 3467 FO
  36   36 4538 3486 FO
  36   36 4444 3467 FO
  36   36 4459 3361 FO
  36   36 4538 3360 FO
  36   36 4459 3361 FO
  36   36 4538 3360 FO
  36   36 4467 4222 FO
  36   36 4459 4215 FO
  36   36 4467 4222 FO
  36   36 4459 4215 FO
  36   36 4875  604 FO
  36   36 4467  650 FO
  36   36 4875  604 FO
  36   36 4467  650 FO
  36   36 4875 4589 FO
  36   36 4875 4588 FO
  36   36 4875 4589 FO
  36   36 4875 4588 FO
  36   36 5212 1088 FO
  36   36 4875 1134 FO
  36   36 5212 1088 FO
  36   36 4875 1134 FO
  36   36 5212 4554 FO
  36   36 5212 4552 FO
  36   36 5212 4554 FO
  36   36 5212 4552 FO
  36   36 5627 1945 FO
  36   36 5212 1983 FO
  36   36 5627 1945 FO
  36   36 5212 1983 FO
  36   36 5996 2577 FO
  36   36 5627 2616 FO
  36   36 5996 2577 FO
  36   36 5627 2616 FO
  36   36 6168 1397 FO
  36   36 5996 1388 FO
gs 899 388 5359 4226 rc

gr 
0 j
0 -58 -58 0 0 58 58 0 1287 4576 5 MP
/c9 { 0.000000 0.000000 1.000000 sr} bdef
c9
DP
0 -58 -58 0 0 58 58 0 1280 4577 5 MP
DP
0 -58 -58 0 0 58 58 0 1287 4576 5 MP
DP
0 -58 -58 0 0 58 58 0 1280 4577 5 MP
DP
0 -58 -58 0 0 58 58 0 1303 4571 5 MP
DP
0 -58 -58 0 0 58 58 0 1287 4574 5 MP
DP
0 -58 -58 0 0 58 58 0 1303 4571 5 MP
DP
0 -58 -58 0 0 58 58 0 1287 4574 5 MP
DP
0 -58 -58 0 0 58 58 0 1311 4576 5 MP
DP
0 -58 -58 0 0 58 58 0 1303 4578 5 MP
DP
0 -58 -58 0 0 58 58 0 1311 4576 5 MP
DP
0 -58 -58 0 0 58 58 0 1303 4578 5 MP
DP
0 -58 -58 0 0 58 58 0 1342 4552 5 MP
DP
0 -58 -58 0 0 58 58 0 1311 4558 5 MP
DP
0 -58 -58 0 0 58 58 0 1342 4552 5 MP
DP
0 -58 -58 0 0 58 58 0 1311 4558 5 MP
DP
0 -58 -58 0 0 58 58 0 1381 4576 5 MP
DP
0 -58 -58 0 0 58 58 0 1342 4581 5 MP
DP
0 -58 -58 0 0 58 58 0 1381 4576 5 MP
DP
0 -58 -58 0 0 58 58 0 1342 4581 5 MP
DP
0 -58 -58 0 0 58 58 0 1389 4527 5 MP
DP
0 -58 -58 0 0 58 58 0 1381 4532 5 MP
DP
0 -58 -58 0 0 58 58 0 1389 4527 5 MP
DP
0 -58 -58 0 0 58 58 0 1381 4532 5 MP
DP
0 -58 -58 0 0 58 58 0 1468 4562 5 MP
DP
0 -58 -58 0 0 58 58 0 1389 4571 5 MP
DP
0 -58 -58 0 0 58 58 0 1468 4562 5 MP
DP
0 -58 -58 0 0 58 58 0 1389 4571 5 MP
DP
0 -58 -58 0 0 58 58 0 1765 4493 5 MP
DP
0 -58 -58 0 0 58 58 0 1468 4538 5 MP
DP
0 -58 -58 0 0 58 58 0 1765 4493 5 MP
DP
0 -58 -58 0 0 58 58 0 1468 4538 5 MP
DP
0 -58 -58 0 0 58 58 0 2087 4489 5 MP
DP
0 -58 -58 0 0 58 58 0 1765 4538 5 MP
DP
0 -58 -58 0 0 58 58 0 2087 4489 5 MP
DP
0 -58 -58 0 0 58 58 0 1765 4538 5 MP
DP
0 -58 -58 0 0 58 58 0 2087 4565 5 MP
DP
0 -58 -58 0 0 58 58 0 2087 4563 5 MP
DP
0 -58 -58 0 0 58 58 0 2087 4565 5 MP
DP
0 -58 -58 0 0 58 58 0 2087 4563 5 MP
DP
0 -58 -58 0 0 58 58 0 2236 4546 5 MP
DP
0 -58 -58 0 0 58 58 0 2087 4573 5 MP
DP
0 -58 -58 0 0 58 58 0 2236 4546 5 MP
DP
0 -58 -58 0 0 58 58 0 2087 4573 5 MP
DP
0 -58 -58 0 0 58 58 0 2259 4568 5 MP
DP
0 -58 -58 0 0 58 58 0 2236 4571 5 MP
DP
0 -58 -58 0 0 58 58 0 2259 4568 5 MP
DP
0 -58 -58 0 0 58 58 0 2236 4571 5 MP
DP
0 -58 -58 0 0 58 58 0 2251 4578 5 MP
DP
0 -58 -58 0 0 58 58 0 2259 4576 5 MP
DP
0 -58 -58 0 0 58 58 0 2251 4578 5 MP
DP
0 -58 -58 0 0 58 58 0 2259 4576 5 MP
DP
0 -58 -58 0 0 58 58 0 2244 4561 5 MP
DP
0 -58 -58 0 0 58 58 0 2251 4561 5 MP
DP
0 -58 -58 0 0 58 58 0 2244 4561 5 MP
DP
0 -58 -58 0 0 58 58 0 2251 4561 5 MP
DP
0 -58 -58 0 0 58 58 0 2847 4416 5 MP
DP
0 -58 -58 0 0 58 58 0 2244 4502 5 MP
DP
0 -58 -58 0 0 58 58 0 2847 4416 5 MP
DP
0 -58 -58 0 0 58 58 0 2244 4502 5 MP
DP
0 -58 -58 0 0 58 58 0 3592 4417 5 MP
DP
0 -58 -58 0 0 58 58 0 2847 4524 5 MP
DP
0 -58 -58 0 0 58 58 0 3592 4417 5 MP
DP
0 -58 -58 0 0 58 58 0 2847 4524 5 MP
DP
0 -58 -58 0 0 58 58 0 4133 4428 5 MP
DP
0 -58 -58 0 0 58 58 0 3592 4505 5 MP
DP
0 -58 -58 0 0 58 58 0 4133 4428 5 MP
DP
0 -58 -58 0 0 58 58 0 3592 4505 5 MP
DP
0 -58 -58 0 0 58 58 0 4125 4553 5 MP
DP
0 -58 -58 0 0 58 58 0 4133 4550 5 MP
DP
0 -58 -58 0 0 58 58 0 4125 4553 5 MP
DP
0 -58 -58 0 0 58 58 0 4133 4550 5 MP
DP
0 -58 -58 0 0 58 58 0 4415 4546 5 MP
DP
0 -58 -58 0 0 58 58 0 4125 4560 5 MP
DP
0 -58 -58 0 0 58 58 0 4415 4546 5 MP
DP
0 -58 -58 0 0 58 58 0 4125 4560 5 MP
DP
0 -58 -58 0 0 58 58 0 4509 4537 5 MP
DP
0 -58 -58 0 0 58 58 0 4415 4550 5 MP
DP
0 -58 -58 0 0 58 58 0 4509 4537 5 MP
DP
0 -58 -58 0 0 58 58 0 4415 4550 5 MP
DP
0 -58 -58 0 0 58 58 0 4430 4568 5 MP
DP
0 -58 -58 0 0 58 58 0 4509 4560 5 MP
DP
0 -58 -58 0 0 58 58 0 4430 4568 5 MP
DP
0 -58 -58 0 0 58 58 0 4509 4560 5 MP
DP
0 -58 -58 0 0 58 58 0 4438 4554 5 MP
DP
0 -58 -58 0 0 58 58 0 4430 4556 5 MP
DP
0 -58 -58 0 0 58 58 0 4438 4554 5 MP
DP
0 -58 -58 0 0 58 58 0 4430 4556 5 MP
DP
0 -58 -58 0 0 58 58 0 4846 4459 5 MP
DP
0 -58 -58 0 0 58 58 0 4438 4529 5 MP
DP
0 -58 -58 0 0 58 58 0 4846 4459 5 MP
DP
0 -58 -58 0 0 58 58 0 4438 4529 5 MP
DP
0 -58 -58 0 0 58 58 0 4846 4578 5 MP
DP
0 -58 -58 0 0 58 58 0 4846 4579 5 MP
DP
0 -58 -58 0 0 58 58 0 4846 4578 5 MP
DP
0 -58 -58 0 0 58 58 0 4846 4579 5 MP
DP
0 -58 -58 0 0 58 58 0 5183 4487 5 MP
DP
0 -58 -58 0 0 58 58 0 4846 4545 5 MP
DP
0 -58 -58 0 0 58 58 0 5183 4487 5 MP
DP
0 -58 -58 0 0 58 58 0 4846 4545 5 MP
DP
0 -58 -58 0 0 58 58 0 5183 4574 5 MP
DP
0 -58 -58 0 0 58 58 0 5183 4575 5 MP
DP
0 -58 -58 0 0 58 58 0 5183 4574 5 MP
DP
0 -58 -58 0 0 58 58 0 5183 4575 5 MP
DP
0 -58 -58 0 0 58 58 0 5598 4482 5 MP
DP
0 -58 -58 0 0 58 58 0 5183 4534 5 MP
DP
0 -58 -58 0 0 58 58 0 5598 4482 5 MP
DP
0 -58 -58 0 0 58 58 0 5183 4534 5 MP
DP
0 -58 -58 0 0 58 58 0 5967 4487 5 MP
DP
0 -58 -58 0 0 58 58 0 5598 4541 5 MP
DP
0 -58 -58 0 0 58 58 0 5967 4487 5 MP
DP
0 -58 -58 0 0 58 58 0 5598 4541 5 MP
DP
0 -58 -58 0 0 58 58 0 6139 4533 5 MP
DP
0 -58 -58 0 0 58 58 0 5967 4560 5 MP
DP
gs 899 388 5359 4226 rc

gr 
0 sg
%%IncludeResource: font Helvetica
/Helvetica /ISOLatin1Encoding 120 FMSR

 744 2970 mt  -90 rotate
(Delta Size \(bytes\)) s
90 rotate
3066 4901 mt 
(To File Size \(bytes\)) s
1 sg
0 369 1239 0 0 -369 4880 861 4 MP
PP
-1239 0 0 369 1239 0 0 -369 4880 861 5 MP stroke
DO
4 w
SO
6 w
0 sg
4880  861 mt 6119  861 L
4880  492 mt 6119  492 L
4880  861 mt 4880  492 L
6119  861 mt 6119  492 L
4880  861 mt 6119  861 L
4880  861 mt 4880  492 L
4880  861 mt 6119  861 L
4880  492 mt 6119  492 L
4880  861 mt 4880  492 L
6119  861 mt 6119  492 L
5683  659 mt 
(Vdelta) s
gs 4880 492 1240 370 rc

gr 
c8
  36   36 4987  615 FO
  36   36 5415  615 FO
gs 4880 492 1240 370 rc

gr 
0 sg
5683  782 mt 
(Xdelta) s
gs 4880 492 1240 370 rc

gr 
0 -58 -58 0 0 58 58 0 4958 709 5 MP
c9
DP
0 -58 -58 0 0 58 58 0 5386 709 5 MP
DP
gs 4880 492 1240 370 rc

gr 

end

eplot
%%EndObject graph 1

epage
end

showpage

%%Trailer
%%EOF
