%!PS-Adobe-2.0 EPSF-2.0
%%Title: dependency.fig
%%Creator: fig2dev Version 3.1 Patchlevel 2
%%CreationDate: Sun Nov  8 19:15:14 1998
%%For: jmacd@axis.hip.berkeley.edu (Josh)
%%Orientation: Portrait
%%BoundingBox: 0 0 282 272
%%Pages: 0
%%BeginSetup
%%IncludeFeature: *PageSize Letter
%%EndSetup
%Magnification: 1.00
%%EndComments
/$F2psDict 200 dict def
$F2psDict begin
$F2psDict /mtrx matrix put
/col-1 {0 setgray} bind def
/col0 {0.000 0.000 0.000 srgb} bind def
/col1 {0.000 0.000 1.000 srgb} bind def
/col2 {0.000 1.000 0.000 srgb} bind def
/col3 {0.000 1.000 1.000 srgb} bind def
/col4 {1.000 0.000 0.000 srgb} bind def
/col5 {1.000 0.000 1.000 srgb} bind def
/col6 {1.000 1.000 0.000 srgb} bind def
/col7 {1.000 1.000 1.000 srgb} bind def
/col8 {0.000 0.000 0.560 srgb} bind def
/col9 {0.000 0.000 0.690 srgb} bind def
/col10 {0.000 0.000 0.820 srgb} bind def
/col11 {0.530 0.810 1.000 srgb} bind def
/col12 {0.000 0.560 0.000 srgb} bind def
/col13 {0.000 0.690 0.000 srgb} bind def
/col14 {0.000 0.820 0.000 srgb} bind def
/col15 {0.000 0.560 0.560 srgb} bind def
/col16 {0.000 0.690 0.690 srgb} bind def
/col17 {0.000 0.820 0.820 srgb} bind def
/col18 {0.560 0.000 0.000 srgb} bind def
/col19 {0.690 0.000 0.000 srgb} bind def
/col20 {0.820 0.000 0.000 srgb} bind def
/col21 {0.560 0.000 0.560 srgb} bind def
/col22 {0.690 0.000 0.690 srgb} bind def
/col23 {0.820 0.000 0.820 srgb} bind def
/col24 {0.500 0.190 0.000 srgb} bind def
/col25 {0.630 0.250 0.000 srgb} bind def
/col26 {0.750 0.380 0.000 srgb} bind def
/col27 {1.000 0.500 0.500 srgb} bind def
/col28 {1.000 0.630 0.630 srgb} bind def
/col29 {1.000 0.750 0.750 srgb} bind def
/col30 {1.000 0.880 0.880 srgb} bind def
/col31 {1.000 0.840 0.000 srgb} bind def

end
save
0.0 271.0 translate
1 -1 scale

/cp {closepath} bind def
/ef {eofill} bind def
/gr {grestore} bind def
/gs {gsave} bind def
/sa {save} bind def
/rs {restore} bind def
/l {lineto} bind def
/m {moveto} bind def
/rm {rmoveto} bind def
/n {newpath} bind def
/s {stroke} bind def
/sh {show} bind def
/slc {setlinecap} bind def
/slj {setlinejoin} bind def
/slw {setlinewidth} bind def
/srgb {setrgbcolor} bind def
/rot {rotate} bind def
/sc {scale} bind def
/sd {setdash} bind def
/ff {findfont} bind def
/sf {setfont} bind def
/scf {scalefont} bind def
/sw {stringwidth} bind def
/tr {translate} bind def
/tnt {dup dup currentrgbcolor
  4 -2 roll dup 1 exch sub 3 -1 roll mul add
  4 -2 roll dup 1 exch sub 3 -1 roll mul add
  4 -2 roll dup 1 exch sub 3 -1 roll mul add srgb}
  bind def
/shd {dup dup currentrgbcolor 4 -2 roll mul 4 -2 roll mul
  4 -2 roll mul srgb} bind def
 /DrawEllipse {
	/endangle exch def
	/startangle exch def
	/yrad exch def
	/xrad exch def
	/y exch def
	/x exch def
	/savematrix mtrx currentmatrix def
	x y tr xrad yrad sc 0 0 1 startangle endangle arc
	closepath
	savematrix setmatrix
	} def

/$F2psBegin {$F2psDict begin /$F2psEnteredState save def} def
/$F2psEnd {$F2psEnteredState restore end} def
%%EndProlog

$F2psBegin
10 setmiterlimit
n 0 792 m 0 0 l 612 0 l 612 792 l cp clip
 0.06000 0.06000 sc
/Times-Roman ff 165.00 scf sf
286 4486 m
gs 1 -1 sc (contents) col-1 sh gr
7.500 slw
% Polyline
gs  clippath
2888 314 m 2983 235 l 2936 350 l 3033 220 l 2985 184 l  cp clip
n 2143 1357 m 3000 214 l gs col7 0.75 shd ef gr gs col-1 s gr gr

% arrowhead
n 2888 314 m 2983 235 l 2936 350 l 2912 332 l 2888 314 l  cp gs 0.00 setgray ef gr  col-1 s
% Polyline
gs  clippath
2867 279 m 2983 236 l 2900 329 l 3035 239 l 3002 189 l  cp clip
n 2148 794 m 3006 222 l gs col7 0.75 shd ef gr gs col-1 s gr gr

% arrowhead
n 2867 279 m 2983 236 l 2900 329 l 2884 304 l 2867 279 l  cp gs 0.00 setgray ef gr  col-1 s
% Polyline
gs  clippath
2935 349 m 2993 240 l 2993 364 l 3033 207 l 2975 192 l  cp clip
n 2143 3643 m 3000 214 l gs col7 0.75 shd ef gr gs col-1 s gr gr

% arrowhead
n 2935 349 m 2993 240 l 2993 364 l 2964 357 l 2935 349 l  cp gs 0.00 setgray ef gr  col-1 s
% Polyline
gs  clippath
2929 346 m 2992 239 l 2986 363 l 3033 208 l 2976 191 l  cp clip
n 2143 3071 m 3000 214 l gs col7 0.75 shd ef gr gs col-1 s gr gr

% arrowhead
n 2929 346 m 2992 239 l 2986 363 l 2958 355 l 2929 346 l  cp gs 0.00 setgray ef gr  col-1 s
% Polyline
gs  clippath
2920 341 m 2990 239 l 2976 362 l 3033 210 l 2977 189 l  cp clip
n 2143 2500 m 3000 214 l gs col7 0.75 shd ef gr gs col-1 s gr gr

% arrowhead
n 2920 341 m 2990 239 l 2976 362 l 2948 352 l 2920 341 l  cp gs 0.00 setgray ef gr  col-1 s
% Polyline
gs  clippath
2853 2470 m 2973 2500 l 2853 2530 l 3015 2530 l 3015 2470 l  cp clip
n 2143 2500 m 3000 2500 l gs col7 0.75 shd ef gr gs col-1 s gr gr

% arrowhead
n 2853 2470 m 2973 2500 l 2853 2530 l 2853 2500 l 2853 2470 l  cp gs 0.00 setgray ef gr  col-1 s
% Polyline
gs  clippath
2888 2600 m 2983 2521 l 2936 2636 l 3033 2506 l 2985 2470 l  cp clip
n 2143 3643 m 3000 2500 l gs col7 0.75 shd ef gr gs col-1 s gr gr

% arrowhead
n 2888 2600 m 2983 2521 l 2936 2636 l 2912 2618 l 2888 2600 l  cp gs 0.00 setgray ef gr  col-1 s
% Polyline
gs  clippath
2867 2565 m 2983 2522 l 2900 2615 l 3035 2525 l 3002 2475 l  cp clip
n 2148 3080 m 3006 2508 l gs col7 0.75 shd ef gr gs col-1 s gr gr

% arrowhead
n 2867 2565 m 2983 2522 l 2900 2615 l 2884 2590 l 2867 2565 l  cp gs 0.00 setgray ef gr  col-1 s
% Polyline
gs  clippath
2853 756 m 2973 786 l 2853 816 l 3015 816 l 3015 756 l  cp clip
n 2143 786 m 3000 786 l gs col7 0.75 shd ef gr gs col-1 s gr gr

% arrowhead
n 2853 756 m 2973 786 l 2853 816 l 2853 786 l 2853 756 l  cp gs 0.00 setgray ef gr  col-1 s
% Polyline
gs  clippath
2867 850 m 2983 808 l 2900 900 l 3035 811 l 3002 761 l  cp clip
n 2148 1365 m 3006 794 l gs col7 0.75 shd ef gr gs col-1 s gr gr

% arrowhead
n 2867 850 m 2983 808 l 2900 900 l 2884 875 l 2867 850 l  cp gs 0.00 setgray ef gr  col-1 s
% Polyline
gs  clippath
2929 918 m 2992 811 l 2986 935 l 3033 780 l 2976 763 l  cp clip
n 2143 3643 m 3000 786 l gs col7 0.75 shd ef gr gs col-1 s gr gr

% arrowhead
n 2929 918 m 2992 811 l 2986 935 l 2958 927 l 2929 918 l  cp gs 0.00 setgray ef gr  col-1 s
% Polyline
gs  clippath
2920 913 m 2990 811 l 2976 934 l 3033 782 l 2977 761 l  cp clip
n 2143 3071 m 3000 786 l gs col7 0.75 shd ef gr gs col-1 s gr gr

% arrowhead
n 2920 913 m 2990 811 l 2976 934 l 2948 924 l 2920 913 l  cp gs 0.00 setgray ef gr  col-1 s
% Polyline
gs  clippath
2853 1327 m 2973 1357 l 2853 1387 l 3015 1387 l 3015 1327 l  cp clip
n 2143 1357 m 3000 1357 l gs col7 0.75 shd ef gr gs col-1 s gr gr

% arrowhead
n 2853 1327 m 2973 1357 l 2853 1387 l 2853 1357 l 2853 1327 l  cp gs 0.00 setgray ef gr  col-1 s
% Polyline
gs  clippath
2888 1457 m 2983 1378 l 2936 1493 l 3033 1363 l 2985 1327 l  cp clip
n 2143 2500 m 3000 1357 l gs col7 0.75 shd ef gr gs col-1 s gr gr

% arrowhead
n 2888 1457 m 2983 1378 l 2936 1493 l 2912 1475 l 2888 1457 l  cp gs 0.00 setgray ef gr  col-1 s
% Polyline
gs  clippath
2920 1484 m 2990 1382 l 2976 1505 l 3033 1353 l 2977 1332 l  cp clip
n 2143 3643 m 3000 1357 l gs col7 0.75 shd ef gr gs col-1 s gr gr

% arrowhead
n 2920 1484 m 2990 1382 l 2976 1505 l 2948 1495 l 2920 1484 l  cp gs 0.00 setgray ef gr  col-1 s
% Polyline
gs  clippath
2853 3041 m 2973 3071 l 2853 3101 l 3015 3101 l 3015 3041 l  cp clip
n 2143 3071 m 3000 3071 l gs col7 0.75 shd ef gr gs col-1 s gr gr

% arrowhead
n 2853 3041 m 2973 3071 l 2853 3101 l 2853 3071 l 2853 3041 l  cp gs 0.00 setgray ef gr  col-1 s
% Polyline
gs  clippath
2867 3136 m 2983 3094 l 2900 3186 l 3035 3097 l 3002 3047 l  cp clip
n 2148 3651 m 3006 3080 l gs col7 0.75 shd ef gr gs col-1 s gr gr

% arrowhead
n 2867 3136 m 2983 3094 l 2900 3186 l 2884 3161 l 2867 3136 l  cp gs 0.00 setgray ef gr  col-1 s
% Polyline
gs  clippath
2853 3613 m 2973 3643 l 2853 3673 l 3015 3673 l 3015 3613 l  cp clip
n 2143 3643 m 3000 3643 l gs col7 0.75 shd ef gr gs col-1 s gr gr

% arrowhead
n 2853 3613 m 2973 3643 l 2853 3673 l 2853 3643 l 2853 3613 l  cp gs 0.00 setgray ef gr  col-1 s
% Ellipse
n 2071 214 80 80 0 360 DrawEllipse gs col-1 s gr

% Ellipse
n 2071 786 80 80 0 360 DrawEllipse gs col-1 s gr

% Ellipse
n 2071 1357 80 80 0 360 DrawEllipse gs col-1 s gr

% Ellipse
n 2071 2500 80 80 0 360 DrawEllipse gs col-1 s gr

% Ellipse
n 2071 3071 80 80 0 360 DrawEllipse gs col-1 s gr

% Ellipse
n 2071 3643 80 80 0 360 DrawEllipse gs col-1 s gr

% Polyline
n 286 143 m 1143 143 l 1143 286 l 286 286 l cp gs col-1 s gr 
% Polyline
n 286 714 m 1143 714 l 1143 857 l 286 857 l cp gs col-1 s gr 
% Polyline
n 286 1286 m 1143 1286 l 1143 1429 l 286 1429 l cp gs col-1 s gr 
% Polyline
n 286 2429 m 1143 2429 l 1143 2571 l 286 2571 l cp gs col-1 s gr 
% Polyline
n 286 3000 m 1143 3000 l 1143 3143 l 286 3143 l cp gs col-1 s gr 
% Polyline
n 286 3571 m 1143 3571 l 1143 3714 l 286 3714 l cp gs col-1 s gr 
% Polyline
n 3000 143 m 3428 143 l 3428 286 l 3000 286 l cp gs col7 0.75 shd ef gr gs col-1 s gr 
% Polyline
n 3000 714 m 3428 714 l 3428 857 l 3000 857 l cp gs col7 0.75 shd ef gr gs col-1 s gr 
% Polyline
n 3000 1286 m 3428 1286 l 3428 1429 l 3000 1429 l cp gs col7 0.75 shd ef gr gs col-1 s gr 
% Polyline
n 3000 2429 m 3428 2429 l 3428 2571 l 3000 2571 l cp gs col7 0.75 shd ef gr gs col-1 s gr 
% Polyline
n 3000 3000 m 3428 3000 l 3428 3143 l 3000 3143 l cp gs col7 0.75 shd ef gr gs col-1 s gr 
% Polyline
n 3000 3571 m 3428 3571 l 3428 3714 l 3000 3714 l cp gs col7 0.75 shd ef gr gs col-1 s gr 
% Polyline
gs  clippath
1282 729 m 1165 771 l 1249 679 l 1114 769 l 1147 819 l  cp clip
n 2000 214 m 1143 786 l gs col7 0.75 shd ef gr gs col-1 s gr gr

% arrowhead
n 1282 729 m 1165 771 l 1249 679 l 1265 704 l 1282 729 l  cp gs 0.00 setgray ef gr  col-1 s
% Polyline
gs  clippath
1282 1300 m 1165 1342 l 1249 1251 l 1114 1340 l 1147 1390 l  cp clip
n 2000 786 m 1143 1357 l gs col7 0.75 shd ef gr gs col-1 s gr gr

% arrowhead
n 1282 1300 m 1165 1342 l 1249 1251 l 1265 1275 l 1282 1300 l  cp gs 0.00 setgray ef gr  col-1 s
% Polyline
gs  clippath
1282 1872 m 1165 1914 l 1249 1822 l 1114 1912 l 1147 1962 l  cp clip
n 2000 1357 m 1143 1929 l gs col7 0.75 shd ef gr gs col-1 s gr gr

% arrowhead
n 1282 1872 m 1165 1914 l 1249 1822 l 1265 1847 l 1282 1872 l  cp gs 0.00 setgray ef gr  col-1 s
% Polyline
gs  clippath
1249 2035 m 1165 1943 l 1282 1986 l 1147 1896 l 1114 1946 l  cp clip
n 2000 2500 m 1143 1929 l gs col7 0.75 shd ef gr gs col-1 s gr gr

% arrowhead
n 1249 2035 m 1165 1943 l 1282 1986 l 1265 2011 l 1249 2035 l  cp gs 0.00 setgray ef gr  col-1 s
% Polyline
gs  clippath
1207 2065 m 1159 1950 l 1255 2029 l 1158 1899 l 1110 1935 l  cp clip
n 2000 3071 m 1143 1929 l gs col7 0.75 shd ef gr gs col-1 s gr gr

% arrowhead
n 1207 2065 m 1159 1950 l 1255 2029 l 1231 2047 l 1207 2065 l  cp gs 0.00 setgray ef gr  col-1 s
% Polyline
gs  clippath
1182 2074 m 1155 1953 l 1236 2047 l 1163 1902 l 1109 1929 l  cp clip
n 2000 3643 m 1143 1929 l gs col7 0.75 shd ef gr gs col-1 s gr gr

% arrowhead
n 1182 2074 m 1155 1953 l 1236 2047 l 1209 2060 l 1182 2074 l  cp gs 0.00 setgray ef gr  col-1 s
% Polyline
n 286 1857 m 1143 1857 l 1143 2000 l 286 2000 l cp gs col7 0.75 shd ef gr gs col-1 s gr 
% Polyline
gs  clippath
4291 1147 m 4321 1027 l 4351 1147 l 4351 985 l 4291 985 l  cp clip
n 4321 1286 m 4321 1000 l gs col7 0.75 shd ef gr gs col-1 s gr gr

% arrowhead
n 4291 1147 m 4321 1027 l 4351 1147 l 4321 1147 l 4291 1147 l  cp gs 0.00 setgray ef gr  col-1 s
% Polyline
gs  clippath
4351 2746 m 4321 2866 l 4291 2746 l 4291 2908 l 4351 2908 l  cp clip
n 4321 2893 m 4321 2607 l gs col7 0.75 shd ef gr gs col-1 s gr gr

% arrowhead
n 4351 2746 m 4321 2866 l 4291 2746 l 4321 2746 l 4351 2746 l  cp gs 0.00 setgray ef gr  col-1 s
/Times-Roman ff 165.00 scf sf
4143 1429 m
gs 1 -1 sc (reverse) col-1 sh gr
/Times-Roman ff 165.00 scf sf
4143 2571 m
gs 1 -1 sc (forward) col-1 sh gr
/Times-Roman ff 165.00 scf sf
4143 2000 m
gs 1 -1 sc (literal) col-1 sh gr
% Polyline
n 1902 0 m 1857 0 1857 384 45 arcto 4 {pop} repeat
  1857 429 3526 429 45 arcto 4 {pop} repeat
  3571 429 3571 45 45 arcto 4 {pop} repeat
  3571 0 1902 0 45 arcto 4 {pop} repeat
 cp gs col-1 s gr 
% Polyline
n 1902 571 m 1857 571 1857 955 45 arcto 4 {pop} repeat
  1857 1000 3526 1000 45 arcto 4 {pop} repeat
  3571 1000 3571 616 45 arcto 4 {pop} repeat
  3571 571 1902 571 45 arcto 4 {pop} repeat
 cp gs col-1 s gr 
% Polyline
n 1902 1143 m 1857 1143 1857 1526 45 arcto 4 {pop} repeat
  1857 1571 3526 1571 45 arcto 4 {pop} repeat
  3571 1571 3571 1188 45 arcto 4 {pop} repeat
  3571 1143 1902 1143 45 arcto 4 {pop} repeat
 cp gs col-1 s gr 
% Polyline
n 1902 2286 m 1857 2286 1857 2669 45 arcto 4 {pop} repeat
  1857 2714 3526 2714 45 arcto 4 {pop} repeat
  3571 2714 3571 2331 45 arcto 4 {pop} repeat
  3571 2286 1902 2286 45 arcto 4 {pop} repeat
 cp gs col-1 s gr 
% Polyline
n 1902 2857 m 1857 2857 1857 3241 45 arcto 4 {pop} repeat
  1857 3286 3526 3286 45 arcto 4 {pop} repeat
  3571 3286 3571 2902 45 arcto 4 {pop} repeat
  3571 2857 1902 2857 45 arcto 4 {pop} repeat
 cp gs col-1 s gr 
% Polyline
n 1902 3429 m 1857 3429 1857 3812 45 arcto 4 {pop} repeat
  1857 3857 3526 3857 45 arcto 4 {pop} repeat
  3571 3857 3571 3474 45 arcto 4 {pop} repeat
  3571 3429 1902 3429 45 arcto 4 {pop} repeat
 cp gs col-1 s gr 
/Times-Roman ff 165.00 scf sf
0 286 m
gs 1 -1 sc (F1) col-1 sh gr
/Times-Roman ff 165.00 scf sf
0 857 m
gs 1 -1 sc (F2) col-1 sh gr
/Times-Roman ff 165.00 scf sf
0 1429 m
gs 1 -1 sc (F3) col-1 sh gr
/Times-Roman ff 165.00 scf sf
0 2000 m
gs 1 -1 sc (F4) col-1 sh gr
/Times-Roman ff 165.00 scf sf
0 2571 m
gs 1 -1 sc (F5) col-1 sh gr
/Times-Roman ff 165.00 scf sf
0 3143 m
gs 1 -1 sc (F6) col-1 sh gr
/Times-Roman ff 165.00 scf sf
0 3714 m
gs 1 -1 sc (F7) col-1 sh gr
/Times-Roman ff 165.00 scf sf
3714 286 m
gs 1 -1 sc (D1) col-1 sh gr
/Times-Roman ff 165.00 scf sf
3714 857 m
gs 1 -1 sc (D2) col-1 sh gr
/Times-Roman ff 165.00 scf sf
3714 1429 m
gs 1 -1 sc (D3) col-1 sh gr
/Times-Roman ff 165.00 scf sf
3714 2571 m
gs 1 -1 sc (D5) col-1 sh gr
/Times-Roman ff 165.00 scf sf
3714 3143 m
gs 1 -1 sc (D6) col-1 sh gr
/Times-Roman ff 165.00 scf sf
3714 3714 m
gs 1 -1 sc (D7) col-1 sh gr
% Polyline
gs  clippath
2041 3861 m 2071 3741 l 2101 3861 l 2101 3699 l 2041 3699 l  cp clip
n 2071 4143 m 2071 3714 l gs col-1 s gr gr

% arrowhead
n 2041 3861 m 2071 3741 l 2101 3861 l 2071 3861 l 2041 3861 l  cp gs 0.00 setgray ef gr  col-1 s
% Polyline
gs  clippath
3041 3861 m 3071 3741 l 3101 3861 l 3101 3699 l 3041 3699 l  cp clip
n 3071 4143 m 3071 3714 l gs col-1 s gr gr

% arrowhead
n 3041 3861 m 3071 3741 l 3101 3861 l 3071 3861 l 3041 3861 l  cp gs 0.00 setgray ef gr  col-1 s
% Polyline
gs  clippath
327 3861 m 357 3741 l 387 3861 l 387 3699 l 327 3699 l  cp clip
n 357 4143 m 357 3714 l gs col-1 s gr gr

% arrowhead
n 327 3861 m 357 3741 l 387 3861 l 357 3861 l 327 3861 l  cp gs 0.00 setgray ef gr  col-1 s
/Times-Roman ff 165.00 scf sf
2000 4286 m
gs 1 -1 sc (control) col-1 sh gr
/Times-Roman ff 165.00 scf sf
3000 4486 m
gs 1 -1 sc (data) col-1 sh gr
/Times-Roman ff 165.00 scf sf
3000 4286 m
gs 1 -1 sc (insert) col-1 sh gr
/Times-Roman ff 165.00 scf sf
286 4286 m
gs 1 -1 sc (version) col-1 sh gr
% Polyline
gs  clippath
2853 184 m 2973 214 l 2853 244 l 3015 244 l 3015 184 l  cp clip
n 2143 214 m 3000 214 l gs col7 0.75 shd ef gr gs col-1 s gr gr

% arrowhead
n 2853 184 m 2973 214 l 2853 244 l 2853 214 l 2853 184 l  cp gs 0.00 setgray ef gr  col-1 s
$F2psEnd
rs
