%!PS-Adobe-2.0 EPSF-2.0
%%Title: jumping.fig
%%Creator: fig2dev Version 3.1 Patchlevel 2
%%CreationDate: Sun Nov  8 08:25:36 1998
%%For: jmacd@axis.hip.berkeley.edu (Josh)
%%Orientation: Portrait
%%BoundingBox: 0 0 194 30
%%Pages: 0
%%BeginSetup
%%IncludeFeature: *PageSize Letter
%%EndSetup
%Magnification: 1.00
%%EndComments
/$F2psDict 200 dict def
$F2psDict begin
$F2psDict /mtrx matrix put
/col-1 {0 setgray} bind def
/col0 {0.000 0.000 0.000 srgb} bind def
/col1 {0.000 0.000 1.000 srgb} bind def
/col2 {0.000 1.000 0.000 srgb} bind def
/col3 {0.000 1.000 1.000 srgb} bind def
/col4 {1.000 0.000 0.000 srgb} bind def
/col5 {1.000 0.000 1.000 srgb} bind def
/col6 {1.000 1.000 0.000 srgb} bind def
/col7 {1.000 1.000 1.000 srgb} bind def
/col8 {0.000 0.000 0.560 srgb} bind def
/col9 {0.000 0.000 0.690 srgb} bind def
/col10 {0.000 0.000 0.820 srgb} bind def
/col11 {0.530 0.810 1.000 srgb} bind def
/col12 {0.000 0.560 0.000 srgb} bind def
/col13 {0.000 0.690 0.000 srgb} bind def
/col14 {0.000 0.820 0.000 srgb} bind def
/col15 {0.000 0.560 0.560 srgb} bind def
/col16 {0.000 0.690 0.690 srgb} bind def
/col17 {0.000 0.820 0.820 srgb} bind def
/col18 {0.560 0.000 0.000 srgb} bind def
/col19 {0.690 0.000 0.000 srgb} bind def
/col20 {0.820 0.000 0.000 srgb} bind def
/col21 {0.560 0.000 0.560 srgb} bind def
/col22 {0.690 0.000 0.690 srgb} bind def
/col23 {0.820 0.000 0.820 srgb} bind def
/col24 {0.500 0.190 0.000 srgb} bind def
/col25 {0.630 0.250 0.000 srgb} bind def
/col26 {0.750 0.380 0.000 srgb} bind def
/col27 {1.000 0.500 0.500 srgb} bind def
/col28 {1.000 0.630 0.630 srgb} bind def
/col29 {1.000 0.750 0.750 srgb} bind def
/col30 {1.000 0.880 0.880 srgb} bind def
/col31 {1.000 0.840 0.000 srgb} bind def

end
save
1.0 29.0 translate
1 -1 scale

/cp {closepath} bind def
/ef {eofill} bind def
/gr {grestore} bind def
/gs {gsave} bind def
/sa {save} bind def
/rs {restore} bind def
/l {lineto} bind def
/m {moveto} bind def
/rm {rmoveto} bind def
/n {newpath} bind def
/s {stroke} bind def
/sh {show} bind def
/slc {setlinecap} bind def
/slj {setlinejoin} bind def
/slw {setlinewidth} bind def
/srgb {setrgbcolor} bind def
/rot {rotate} bind def
/sc {scale} bind def
/sd {setdash} bind def
/ff {findfont} bind def
/sf {setfont} bind def
/scf {scalefont} bind def
/sw {stringwidth} bind def
/tr {translate} bind def
/tnt {dup dup currentrgbcolor
  4 -2 roll dup 1 exch sub 3 -1 roll mul add
  4 -2 roll dup 1 exch sub 3 -1 roll mul add
  4 -2 roll dup 1 exch sub 3 -1 roll mul add srgb}
  bind def
/shd {dup dup currentrgbcolor 4 -2 roll mul 4 -2 roll mul
  4 -2 roll mul srgb} bind def
/$F2psBegin {$F2psDict begin /$F2psEnteredState save def} def
/$F2psEnd {$F2psEnteredState restore end} def
%%EndProlog

$F2psBegin
10 setmiterlimit
n 0 792 m 0 0 l 612 0 l 612 792 l cp clip
 0.06000 0.06000 sc
7.500 slw
% Polyline
gs  clippath
2737 425 m 2857 455 l 2737 485 l 2899 485 l 2899 425 l  cp clip
n 304 455 m 2884 455 l gs col-1 s gr gr

% arrowhead
n 2737 425 m 2857 455 l 2737 485 l 2737 455 l 2737 425 l  cp gs 0.00 setgray ef gr  col-1 s
/Times-Roman ff 255.00 scf sf
382 227 m
gs 1 -1 sc (R) col-1 sh gr
% Polyline
n 609 0 m 915 0 l 915 303 l 609 303 l cp gs col-1 s gr 
/Times-Roman ff 255.00 scf sf
685 227 m
gs 1 -1 sc (L) col-1 sh gr
% Polyline
n 915 0 m 1221 0 l 1221 303 l 915 303 l cp gs col-1 s gr 
/Times-Roman ff 255.00 scf sf
992 227 m
gs 1 -1 sc (F) col-1 sh gr
% Polyline
n 0 0 m 306 0 l 306 303 l 0 303 l cp gs col-1 s gr 
/Times-Roman ff 255.00 scf sf
76 227 m
gs 1 -1 sc (R) col-1 sh gr
% Polyline
n 1221 0 m 1527 0 l 1527 303 l 1221 303 l cp gs col-1 s gr 
/Times-Roman ff 255.00 scf sf
1297 227 m
gs 1 -1 sc (F) col-1 sh gr
% Polyline
n 1983 0 m 2289 0 l 2289 303 l 1983 303 l cp gs col-1 s gr 
/Times-Roman ff 255.00 scf sf
2059 227 m
gs 1 -1 sc (R) col-1 sh gr
% Polyline
n 2289 0 m 2595 0 l 2595 303 l 2289 303 l cp gs col-1 s gr 
/Times-Roman ff 255.00 scf sf
2365 227 m
gs 1 -1 sc (L) col-1 sh gr
% Polyline
n 2595 0 m 2898 0 l 2898 303 l 2595 303 l cp gs col-1 s gr 
/Times-Roman ff 255.00 scf sf
2669 227 m
gs 1 -1 sc (F) col-1 sh gr
% Polyline
n 1677 0 m 1983 0 l 1983 303 l 1677 303 l cp gs col-1 s gr 
/Times-Roman ff 255.00 scf sf
1753 227 m
gs 1 -1 sc (R) col-1 sh gr
% Polyline
n 2898 0 m 3204 0 l 3204 303 l 2898 303 l cp gs col-1 s gr 
/Times-Roman ff 255.00 scf sf
2975 227 m
gs 1 -1 sc (F) col-1 sh gr
% Polyline
n 306 0 m 609 0 l 609 303 l 306 303 l cp gs col-1 s gr 
$F2psEnd
rs
