%!PS-Adobe-2.0 EPSF-2.0
%%Title: onestep.fig
%%Creator: fig2dev Version 3.1 Patchlevel 2
%%CreationDate: Sun Nov  8 03:20:13 1998
%%For: jmacd@axis.hip.berkeley.edu (Josh)
%%Orientation: Portrait
%%BoundingBox: 0 0 336 229
%%Pages: 0
%%BeginSetup
%%IncludeFeature: *PageSize Letter
%%EndSetup
%Magnification: 1.00
%%EndComments
/MyAppDict 100 dict dup begin def
/$F2psDict 200 dict def
$F2psDict begin
$F2psDict /mtrx matrix put
/col-1 {0 setgray} bind def
/col0 {0.000 0.000 0.000 srgb} bind def
/col1 {0.000 0.000 1.000 srgb} bind def
/col2 {0.000 1.000 0.000 srgb} bind def
/col3 {0.000 1.000 1.000 srgb} bind def
/col4 {1.000 0.000 0.000 srgb} bind def
/col5 {1.000 0.000 1.000 srgb} bind def
/col6 {1.000 1.000 0.000 srgb} bind def
/col7 {1.000 1.000 1.000 srgb} bind def
/col8 {0.000 0.000 0.560 srgb} bind def
/col9 {0.000 0.000 0.690 srgb} bind def
/col10 {0.000 0.000 0.820 srgb} bind def
/col11 {0.530 0.810 1.000 srgb} bind def
/col12 {0.000 0.560 0.000 srgb} bind def
/col13 {0.000 0.690 0.000 srgb} bind def
/col14 {0.000 0.820 0.000 srgb} bind def
/col15 {0.000 0.560 0.560 srgb} bind def
/col16 {0.000 0.690 0.690 srgb} bind def
/col17 {0.000 0.820 0.820 srgb} bind def
/col18 {0.560 0.000 0.000 srgb} bind def
/col19 {0.690 0.000 0.000 srgb} bind def
/col20 {0.820 0.000 0.000 srgb} bind def
/col21 {0.560 0.000 0.560 srgb} bind def
/col22 {0.690 0.000 0.690 srgb} bind def
/col23 {0.820 0.000 0.820 srgb} bind def
/col24 {0.500 0.190 0.000 srgb} bind def
/col25 {0.630 0.250 0.000 srgb} bind def
/col26 {0.750 0.380 0.000 srgb} bind def
/col27 {1.000 0.500 0.500 srgb} bind def
/col28 {1.000 0.630 0.630 srgb} bind def
/col29 {1.000 0.750 0.750 srgb} bind def
/col30 {1.000 0.880 0.880 srgb} bind def
/col31 {1.000 0.840 0.000 srgb} bind def

end
save
0.0 228.0 translate
1 -1 scale
.9 .9 scale % to make patterns same scale as in xfig

% This junk string is used by the show operators
/PATsstr 1 string def
/PATawidthshow { 	% cx cy cchar rx ry string
  % Loop over each character in the string
  {  % cx cy cchar rx ry char
    % Show the character
    dup				% cx cy cchar rx ry char char
    PATsstr dup 0 4 -1 roll put	% cx cy cchar rx ry char (char)
    false charpath		% cx cy cchar rx ry char
    /clip load PATdraw
    % Move past the character (charpath modified the
    % current point)
    currentpoint			% cx cy cchar rx ry char x y
    newpath
    moveto			% cx cy cchar rx ry char
    % Reposition by cx,cy if the character in the string is cchar
    3 index eq {			% cx cy cchar rx ry
      4 index 4 index rmoveto
    } if
    % Reposition all characters by rx ry
    2 copy rmoveto		% cx cy cchar rx ry
  } forall
  pop pop pop pop pop		% -
  currentpoint
  newpath
  moveto
} bind def
/PATcg {
  7 dict dup begin
    /lw currentlinewidth def
    /lc currentlinecap def
    /lj currentlinejoin def
    /ml currentmiterlimit def
    /ds [ currentdash ] def
    /cc [ currentrgbcolor ] def
    /cm matrix currentmatrix def
  end
} bind def
% PATdraw - calculates the boundaries of the object and
% fills it with the current pattern
/PATdraw {			% proc
  save exch
    PATpcalc			% proc nw nh px py
    5 -1 roll exec		% nw nh px py
    newpath
    PATfill			% -
  restore
} bind def
% PATfill - performs the tiling for the shape
/PATfill { % nw nh px py PATfill -
  PATDict /CurrentPattern get dup begin
    setfont
    % Set the coordinate system to Pattern Space
    PatternGState PATsg
    % Set the color for uncolored pattezns
    PaintType 2 eq { PATDict /PColor get PATsc } if
    % Create the string for showing
    3 index string		% nw nh px py str
    % Loop for each of the pattern sources
    0 1 Multi 1 sub {		% nw nh px py str source
	% Move to the starting location
	3 index 3 index		% nw nh px py str source px py
	moveto			% nw nh px py str source
	% For multiple sources, set the appropriate color
	Multi 1 ne { dup PC exch get PATsc } if
	% Set the appropriate string for the source
	0 1 7 index 1 sub { 2 index exch 2 index put } for pop
	% Loop over the number of vertical cells
	3 index 		% nw nh px py str nh
	{			% nw nh px py str
	  currentpoint		% nw nh px py str cx cy
	  2 index show		% nw nh px py str cx cy
	  YStep add moveto	% nw nh px py str
	} repeat		% nw nh px py str
    } for
    5 { pop } repeat
  end
} bind def

% PATkshow - kshow with the current pattezn
/PATkshow {			% proc string
  exch bind			% string proc
  1 index 0 get			% string proc char
  % Loop over all but the last character in the string
  0 1 4 index length 2 sub {
				% string proc char idx
    % Find the n+1th character in the string
    3 index exch 1 add get	% string proe char char+1
    exch 2 copy			% strinq proc char+1 char char+1 char
    % Now show the nth character
    PATsstr dup 0 4 -1 roll put	% string proc chr+1 chr chr+1 (chr)
    false charpath		% string proc char+1 char char+1
    /clip load PATdraw
    % Move past the character (charpath modified the current point)
    currentpoint newpath moveto
    % Execute the user proc (should consume char and char+1)
    mark 3 1 roll		% string proc char+1 mark char char+1
    4 index exec		% string proc char+1 mark...
    cleartomark			% string proc char+1
  } for
  % Now display the last character
  PATsstr dup 0 4 -1 roll put	% string proc (char+1)
  false charpath		% string proc
  /clip load PATdraw
  neewath
  pop pop			% -
} bind def
% PATmp - the makepattern equivalent
/PATmp {			% patdict patmtx PATmp patinstance
  exch dup length 7 add		% We will add 6 new entries plus 1 FID
  dict copy			% Create a new dictionary
  begin
    % Matrix to install when painting the pattern
    TilingType PATtcalc
    /PatternGState PATcg def
    PatternGState /cm 3 -1 roll put
    % Check for multi pattern sources (Level 1 fast color patterns)
    currentdict /Multi known not { /Multi 1 def } if
    % Font dictionary definitions
    /FontType 3 def
    % Create a dummy encoding vector
    /Encoding 256 array def
    3 string 0 1 255 {
      Encoding exch dup 3 index cvs cvn put } for pop
    /FontMatrix matrix def
    /FontBBox BBox def
    /BuildChar {
	mark 3 1 roll		% mark dict char
	exch begin
	Multi 1 ne {PaintData exch get}{pop} ifelse  % mark [paintdata]
	  PaintType 2 eq Multi 1 ne or
	  { XStep 0 FontBBox aload pop setcachedevice }
	  { XStep 0 setcharwidth } ifelse
	  currentdict		% mark [paintdata] dict
	  /PaintProc load	% mark [paintdata] dict paintproc
	end
	gsave
	  false PATredef exec true PATredef
	grestore
	cleartomark		% -
    } bind def
    currentdict
  end				% newdict
  /foo exch			% /foo newlict
  definefont			% newfont
} bind def
% PATpcalc - calculates the starting point and width/height
% of the tile fill for the shape
/PATpcalc {	% - PATpcalc nw nh px py
  PATDict /CurrentPattern get begin
    gsave
	% Set up the coordinate system to Pattern Space
	% and lock down pattern
	PatternGState /cm get setmatrix
	BBox aload pop pop pop translate
	% Determine the bounding box of the shape
	pathbbox			% llx lly urx ury
    grestore
    % Determine (nw, nh) the # of cells to paint width and height
    PatHeight div ceiling		% llx lly urx qh
    4 1 roll				% qh llx lly urx
    PatWidth div ceiling		% qh llx lly qw
    4 1 roll				% qw qh llx lly
    PatHeight div floor			% qw qh llx ph
    4 1 roll				% ph qw qh llx
    PatWidth div floor			% ph qw qh pw
    4 1 roll				% pw ph qw qh
    2 index sub cvi abs			% pw ph qs qh-ph
    exch 3 index sub cvi abs exch	% pw ph nw=qw-pw nh=qh-ph
    % Determine the starting point of the pattern fill
    %(px, py)
    4 2 roll				% nw nh pw ph
    PatHeight mul			% nw nh pw py
    exch				% nw nh py pw
    PatWidth mul exch			% nw nh px py
  end
} bind def

% Save the original routines so that we can use them later on
/oldfill	/fill load def
/oldeofill	/eofill load def
/oldstroke	/stroke load def
/oldshow	/show load def
/oldashow	/ashow load def
/oldwidthshow	/widthshow load def
/oldawidthshow	/awidthshow load def
/oldkshow	/kshow load def

% These defs are necessary so that subsequent procs don't bind in
% the originals
/fill	   { oldfill } bind def
/eofill	   { oldeofill } bind def
/stroke	   { oldstroke } bind def
/show	   { oldshow } bind def
/ashow	   { oldashow } bind def
/widthshow { oldwidthshow } bind def
/awidthshow { oldawidthshow } bind def
/kshow 	   { oldkshow } bind def
/PATredef {
  MyAppDict begin
    {
    /fill { /clip load PATdraw newpath } bind def
    /eofill { /eoclip load PATdraw newpath } bind def
    /stroke { PATstroke } bind def
    /show { 0 0 null 0 0 6 -1 roll PATawidthshow } bind def
    /ashow { 0 0 null 6 3 roll PATawidthshow }
    bind def
    /widthshow { 0 0 3 -1 roll PATawidthshow }
    bind def
    /awidthshow { PATawidthshow } bind def
    /kshow { PATkshow } bind def
  } {
    /fill   { oldfill } bind def
    /eofill { oldeofill } bind def
    /stroke { oldstroke } bind def
    /show   { oldshow } bind def
    /ashow  { oldashow } bind def
    /widthshow { oldwidthshow } bind def
    /awidthshow { oldawidthshow } bind def
    /kshow  { oldkshow } bind def
    } ifelse
  end
} bind def
false PATredef
% Conditionally define setcmykcolor if not available
/setcmykcolor where { pop } {
  /setcmykcolor {
    1 sub 4 1 roll
    3 {
	3 index add neg dup 0 lt { pop 0 } if 3 1 roll
    } repeat
    setrgbcolor - pop
  } bind def
} ifelse
/PATsc {		% colorarray
  aload length		% c1 ... cn length
    dup 1 eq { pop setgray } { 3 eq { setrgbcolor } { setcmykcolor
  } ifelse } ifelse
} bind def
/PATsg {		% dict
  begin
    lw setlinewidth
    lc setlinecap
    lj setlinejoin
    ml setmiterlimit
    ds aload pop setdash
    cc aload pop setrgbcolor
    cm setmatrix
  end
} bind def

/PATDict 3 dict def
/PATsp {
  true PATredef
  PATDict begin
    /CurrentPattern exch def
    % If it's an uncolored pattern, save the color
    CurrentPattern /PaintType get 2 eq {
      /PColor exch def
    } if
    /CColor [ currentrgbcolor ] def
  end
} bind def
% PATstroke - stroke with the current pattern
/PATstroke {
  countdictstack
  save
  mark
  {
    currentpoint strokepath moveto
    PATpcalc				% proc nw nh px py
    clip newpath PATfill
    } stopped {
	(*** PATstroke Warning: Path is too complex, stroking
	  with gray) =
    cleartomark
    restore
    countdictstack exch sub dup 0 gt
	{ { end } repeat } { pop } ifelse
    gsave 0.5 setgray oldstroke grestore
  } { pop restore pop } ifelse
  newpath
} bind def
/PATtcalc {		% modmtx tilingtype PATtcalc tilematrix
  % Note: tiling types 2 and 3 are not supported
  gsave
    exch concat					% tilingtype
    matrix currentmatrix exch			% cmtx tilingtype
    % Tiling type 1 and 3: constant spacing
    2 ne {
	% Distort the pattern so that it occupies
	% an integral number of device pixels
	dup 4 get exch dup 5 get exch		% tx ty cmtx
	XStep 0 dtransform
	round exch round exch			% tx ty cmtx dx.x dx.y
	XStep div exch XStep div exch		% tx ty cmtx a b
	0 YStep dtransform
	round exch round exch			% tx ty cmtx a b dy.x dy.y
	YStep div exch YStep div exch		% tx ty cmtx a b c d
	7 -3 roll astore			% { a b c d tx ty }
    } if
  grestore
} bind def
/PATusp {
  false PATredef
  PATDict begin
    CColor PATsc
  end
} bind def

% this is the pattern fill program from the Second edition Reference Manual
% with changes to call the above pattern fill
% left30
11 dict begin
/PaintType 1 def
/PatternType 1 def
/TilingType 1 def
/BBox [0 0 1 1] def
/XStep 1 def
/YStep 1 def
/PatWidth 1 def
/PatHeight 1 def
/Multi 2 def
/PaintData [
  { clippath } bind
  { 32 16 true [ 32 0 0 -16 0 16 ]
	{<c000c000300030000c000c000300030000c000c000300030
	000c000c00030003c000c000300030000c000c0003000300
	00c000c000300030000c000c00030003>}
     imagemask } bind
] def
/PaintProc {
	pop
	exec fill
} def
currentdict
end
/P1 exch def

% horizontal sawtooth lines
11 dict begin
/PaintType 1 def
/PatternType 1 def
/TilingType 1 def
/BBox [0 0 1 1] def
/XStep 1 def
/YStep 1 def
/PatWidth 1 def
/PatHeight 1 def
/Multi 2 def
/PaintData [
  { clippath } bind
  { 32 16 true [ 32 0 0 -16 0 16 ]
	{<000000000000000000000000000000000000000000000000
	000000000100010002800280044004400820082010101010
	20082008400440048002800200010001>}
     imagemask } bind
] def
/PaintProc {
	pop
	exec fill
} def
currentdict
end
/P21 exch def
1.1111 1.1111 scale %restore scale

/cp {closepath} bind def
/ef {eofill} bind def
/gr {grestore} bind def
/gs {gsave} bind def
/sa {save} bind def
/rs {restore} bind def
/l {lineto} bind def
/m {moveto} bind def
/rm {rmoveto} bind def
/n {newpath} bind def
/s {stroke} bind def
/sh {show} bind def
/slc {setlinecap} bind def
/slj {setlinejoin} bind def
/slw {setlinewidth} bind def
/srgb {setrgbcolor} bind def
/rot {rotate} bind def
/sc {scale} bind def
/sd {setdash} bind def
/ff {findfont} bind def
/sf {setfont} bind def
/scf {scalefont} bind def
/sw {stringwidth} bind def
/tr {translate} bind def
/tnt {dup dup currentrgbcolor
  4 -2 roll dup 1 exch sub 3 -1 roll mul add
  4 -2 roll dup 1 exch sub 3 -1 roll mul add
  4 -2 roll dup 1 exch sub 3 -1 roll mul add srgb}
  bind def
/shd {dup dup currentrgbcolor 4 -2 roll mul 4 -2 roll mul
  4 -2 roll mul srgb} bind def
/$F2psBegin {$F2psDict begin /$F2psEnteredState save def} def
/$F2psEnd {$F2psEnteredState restore end} def
%%EndProlog

$F2psBegin
10 setmiterlimit
n 0 792 m 0 0 l 612 0 l 612 792 l cp clip
 0.06000 0.06000 sc
/Courier ff 195.00 scf sf
4457 3343 m
gs 1 -1 sc (LST) col-1 sh gr
/Courier ff 195.00 scf sf
669 3772 m
gs 1 -1 sc (File) col-1 sh gr
/Courier ff 195.00 scf sf
2006 3594 m
gs 1 -1 sc (Copy) col-1 sh gr
/Courier ff 195.00 scf sf
2006 3772 m
gs 1 -1 sc (Segments) col-1 sh gr
/Courier ff 195.00 scf sf
3343 3566 m
gs 1 -1 sc (Insert) col-1 sh gr
/Courier ff 195.00 scf sf
3343 3744 m
gs 1 -1 sc (Segments) col-1 sh gr
/Courier ff 195.00 scf sf
4680 3594 m
gs 1 -1 sc (Physical) col-1 sh gr
/Courier ff 195.00 scf sf
4680 3772 m
gs 1 -1 sc (Storage) col-1 sh gr
7.500 slw
% Polyline
 [15 50.0] 50.0 sd
n 446 0 m 1560 0 l 1560 223 l 446 223 l cp gs col-1 s gr  [] 0 sd
% Polyline
 [15 50.0] 50.0 sd
n 446 446 m 1560 446 l 1560 669 l 446 669 l cp gs col-1 s gr  [] 0 sd
% Polyline
 [15 50.0] 50.0 sd
n 446 891 m 1560 891 l 1560 1114 l 446 1114 l cp gs col-1 s gr  [] 0 sd
% Polyline
 [15 50.0] 50.0 sd
n 446 1337 m 1560 1337 l 1560 1560 l 446 1560 l cp gs col-1 s gr  [] 0 sd
% Polyline
 [15 50.0] 50.0 sd
n 446 1783 m 1560 1783 l 1560 2006 l 446 2006 l cp gs col-1 s gr  [] 0 sd
% Polyline
n 446 1783 m 1560 1783 l 1560 2006 l 446 2006 l cp gs /PC [[1.00 1.00 1.00] [0.00 0.00 0.00]] def
15.00 15.00 sc P1 [16 0 0 -8 29.73 118.87] PATmp PATsp ef gr PATusp gs col-1 s gr 
% Polyline
n 446 1337 m 1560 1337 l 1560 1560 l 446 1560 l cp gs /PC [[1.00 1.00 1.00] [0.00 0.00 0.00]] def
15.00 15.00 sc P1 [16 0 0 -8 29.73 89.13] PATmp PATsp ef gr PATusp gs col-1 s gr 
% Polyline
n 446 891 m 1560 891 l 1560 1114 l 446 1114 l cp gs /PC [[1.00 1.00 1.00] [0.00 0.00 0.00]] def
15.00 15.00 sc P1 [16 0 0 -8 29.73 59.40] PATmp PATsp ef gr PATusp gs col-1 s gr 
% Polyline
n 446 446 m 1560 446 l 1560 669 l 446 669 l cp gs /PC [[1.00 1.00 1.00] [0.00 0.00 0.00]] def
15.00 15.00 sc P1 [16 0 0 -8 29.73 29.73] PATmp PATsp ef gr PATusp gs col-1 s gr 
% Polyline
n 446 0 m 1560 0 l 1560 223 l 446 223 l cp gs /PC [[1.00 1.00 1.00] [0.00 0.00 0.00]] def
15.00 15.00 sc P1 [16 0 0 -8 29.73 0.00] PATmp PATsp ef gr PATusp gs col-1 s gr 
% Polyline
n 446 2229 m 1560 2229 l 1560 2451 l 446 2451 l cp gs /PC [[1.00 1.00 1.00] [0.00 0.00 0.00]] def
15.00 15.00 sc P1 [16 0 0 -8 29.73 148.60] PATmp PATsp ef gr PATusp gs col-1 s gr 
% Polyline
n 1783 0 m 2897 0 l 2897 223 l 1783 223 l cp gs col-1 s gr 
% Polyline
n 1783 446 m 2897 446 l 2897 669 l 1783 669 l cp gs col-1 s gr 
% Polyline
n 1783 891 m 2897 891 l 2897 1114 l 1783 1114 l cp gs col-1 s gr 
% Polyline
n 1783 1337 m 2897 1337 l 2897 1560 l 1783 1560 l cp gs col-1 s gr 
% Polyline
n 1783 1783 m 2897 1783 l 2897 2006 l 1783 2006 l cp gs col-1 s gr 
% Polyline
n 1783 2229 m 2897 2229 l 2897 2451 l 1783 2451 l cp gs col-1 s gr 
% Polyline
n 3120 0 m 4234 0 l 4234 223 l 3120 223 l cp gs col-1 s gr 
% Polyline
n 3120 446 m 4234 446 l 4234 669 l 3120 669 l cp gs col-1 s gr 
% Polyline
n 3120 891 m 4234 891 l 4234 1114 l 3120 1114 l cp gs col-1 s gr 
% Polyline
n 3120 1337 m 4234 1337 l 4234 1560 l 3120 1560 l cp gs col-1 s gr 
% Polyline
n 3120 1783 m 4234 1783 l 4234 2006 l 3120 2006 l cp gs col-1 s gr 
% Polyline
n 3120 2229 m 4234 2229 l 4234 2451 l 3120 2451 l cp gs col-1 s gr 
% Polyline
n 1894 0 m 2897 0 l 2897 223 l 1894 223 l cp gs /PC [[1.00 1.00 1.00] [0.00 0.00 0.00]] def
15.00 15.00 sc P1 [16 0 0 -8 126.27 0.00] PATmp PATsp ef gr PATusp gs col-1 s gr 
% Polyline
n 3120 0 m 3231 0 l 3231 223 l 3120 223 l cp gs /PC [[1.00 1.00 1.00] [0.00 0.00 0.00]] def
15.00 15.00 sc P1 [16 0 0 -8 208.00 0.00] PATmp PATsp ef gr PATusp gs col-1 s gr 
% Polyline
n 1894 446 m 2117 446 l 2117 669 l 1894 669 l cp gs /PC [[1.00 1.00 1.00] [0.00 0.00 0.00]] def
15.00 15.00 sc P1 [16 0 0 -8 126.27 29.73] PATmp PATsp ef gr PATusp gs col-1 s gr 
% Polyline
n 2228 446 m 2340 446 l 2340 669 l 2228 669 l cp gs /PC [[1.00 1.00 1.00] [0.00 0.00 0.00]] def
15.00 15.00 sc P1 [16 0 0 -8 148.53 29.73] PATmp PATsp ef gr PATusp gs col-1 s gr 
% Polyline
n 2563 446 m 2897 446 l 2897 669 l 2563 669 l cp gs /PC [[1.00 1.00 1.00] [0.00 0.00 0.00]] def
15.00 15.00 sc P1 [16 0 0 -8 170.87 29.73] PATmp PATsp ef gr PATusp gs col-1 s gr 
% Polyline
n 3120 446 m 3231 446 l 3231 669 l 3120 669 l cp gs /PC [[1.00 1.00 1.00] [0.00 0.00 0.00]] def
15.00 15.00 sc P1 [16 0 0 -8 208.00 29.73] PATmp PATsp ef gr PATusp gs col-1 s gr 
% Polyline
n 3454 446 m 3565 446 l 3565 669 l 3454 669 l cp gs /PC [[1.00 1.00 1.00] [0.00 0.00 0.00]] def
15.00 15.00 sc P1 [16 0 0 -8 230.27 29.73] PATmp PATsp ef gr PATusp gs col-1 s gr 
% Polyline
n 3677 446 m 3900 446 l 3900 669 l 3677 669 l cp gs /PC [[1.00 1.00 1.00] [0.00 0.00 0.00]] def
15.00 15.00 sc P1 [16 0 0 -8 245.13 29.73] PATmp PATsp ef gr PATusp gs col-1 s gr 
% Polyline
n 1783 891 m 2117 891 l 2117 1114 l 1783 1114 l cp gs /PC [[1.00 1.00 1.00] [0.00 0.00 0.00]] def
15.00 15.00 sc P1 [16 0 0 -8 118.87 59.40] PATmp PATsp ef gr PATusp gs col-1 s gr 
% Polyline
n 2228 891 m 2340 891 l 2340 1114 l 2228 1114 l cp gs /PC [[1.00 1.00 1.00] [0.00 0.00 0.00]] def
15.00 15.00 sc P1 [16 0 0 -8 148.53 59.40] PATmp PATsp ef gr PATusp gs col-1 s gr 
% Polyline
n 2563 891 m 2674 891 l 2674 1114 l 2563 1114 l cp gs /PC [[1.00 1.00 1.00] [0.00 0.00 0.00]] def
15.00 15.00 sc P1 [16 0 0 -8 170.87 59.40] PATmp PATsp ef gr PATusp gs col-1 s gr 
% Polyline
n 2785 891 m 2897 891 l 2897 1114 l 2785 1114 l cp gs /PC [[1.00 1.00 1.00] [0.00 0.00 0.00]] def
15.00 15.00 sc P1 [16 0 0 -8 185.67 59.40] PATmp PATsp ef gr PATusp gs col-1 s gr 
% Polyline
n 3454 891 m 3565 891 l 3565 1114 l 3454 1114 l cp gs /PC [[1.00 1.00 1.00] [0.00 0.00 0.00]] def
15.00 15.00 sc P1 [16 0 0 -8 230.27 59.40] PATmp PATsp ef gr PATusp gs col-1 s gr 
% Polyline
n 3677 891 m 3900 891 l 3900 1114 l 3677 1114 l cp gs /PC [[1.00 1.00 1.00] [0.00 0.00 0.00]] def
15.00 15.00 sc P1 [16 0 0 -8 245.13 59.40] PATmp PATsp ef gr PATusp gs col-1 s gr 
% Polyline
n 4011 891 m 4123 891 l 4123 1114 l 4011 1114 l cp gs /PC [[1.00 1.00 1.00] [0.00 0.00 0.00]] def
15.00 15.00 sc P1 [16 0 0 -8 267.40 59.40] PATmp PATsp ef gr PATusp gs col-1 s gr 
% Polyline
n 2451 1337 m 2563 1337 l 2563 1337 l 2451 1337 l cp gs /PC [[1.00 1.00 1.00] [0.00 0.00 0.00]] def
15.00 15.00 sc P1 [16 0 0 -8 163.40 89.13] PATmp PATsp ef gr PATusp gs col-1 s gr 
% Polyline
n 2006 1337 m 2117 1337 l 2117 1560 l 2006 1560 l cp gs /PC [[1.00 1.00 1.00] [0.00 0.00 0.00]] def
15.00 15.00 sc P1 [16 0 0 -8 133.73 89.13] PATmp PATsp ef gr PATusp gs col-1 s gr 
% Polyline
n 2228 1337 m 2340 1337 l 2340 1560 l 2228 1560 l cp gs /PC [[1.00 1.00 1.00] [0.00 0.00 0.00]] def
15.00 15.00 sc P1 [16 0 0 -8 148.53 89.13] PATmp PATsp ef gr PATusp gs col-1 s gr 
% Polyline
n 1783 1337 m 1894 1337 l 1894 1560 l 1783 1560 l cp gs /PC [[1.00 1.00 1.00] [0.00 0.00 0.00]] def
15.00 15.00 sc P21 [16 0 0 -8 118.87 89.13] PATmp PATsp ef gr PATusp gs col-1 s gr 
% Polyline
n 2563 1337 m 2674 1337 l 2674 1560 l 2563 1560 l cp gs /PC [[1.00 1.00 1.00] [0.00 0.00 0.00]] def
15.00 15.00 sc P1 [16 0 0 -8 170.87 89.13] PATmp PATsp ef gr PATusp gs col-1 s gr 
% Polyline
n 2117 1337 m 2228 1337 l 2228 1560 l 2117 1560 l cp gs /PC [[1.00 1.00 1.00] [0.00 0.00 0.00]] def
15.00 15.00 sc P21 [16 0 0 -8 141.13 89.13] PATmp PATsp ef gr PATusp gs col-1 s gr 
% Polyline
n 2340 1337 m 2563 1337 l 2563 1560 l 2340 1560 l cp gs /PC [[1.00 1.00 1.00] [0.00 0.00 0.00]] def
15.00 15.00 sc P21 [16 0 0 -8 156.00 89.13] PATmp PATsp ef gr PATusp gs col-1 s gr 
% Polyline
n 2006 1783 m 2117 1783 l 2117 2006 l 2006 2006 l cp gs /PC [[1.00 1.00 1.00] [0.00 0.00 0.00]] def
15.00 15.00 sc P1 [16 0 0 -8 133.73 118.87] PATmp PATsp ef gr PATusp gs col-1 s gr 
% Polyline
n 2228 1783 m 2340 1783 l 2340 2006 l 2228 2006 l cp gs /PC [[1.00 1.00 1.00] [0.00 0.00 0.00]] def
15.00 15.00 sc P1 [16 0 0 -8 148.53 118.87] PATmp PATsp ef gr PATusp gs col-1 s gr 
% Polyline
n 2117 1783 m 2228 1783 l 2228 2006 l 2117 2006 l cp gs /PC [[1.00 1.00 1.00] [0.00 0.00 0.00]] def
15.00 15.00 sc P21 [16 0 0 -8 141.13 118.87] PATmp PATsp ef gr PATusp gs col-1 s gr 
% Polyline
n 2340 1783 m 2563 1783 l 2563 2006 l 2340 2006 l cp gs /PC [[1.00 1.00 1.00] [0.00 0.00 0.00]] def
15.00 15.00 sc P21 [16 0 0 -8 156.00 118.87] PATmp PATsp ef gr PATusp gs col-1 s gr 
% Polyline
n 3900 1783 m 4234 1783 l 4234 2006 l 3900 2006 l cp gs /PC [[1.00 1.00 1.00] [0.00 0.00 0.00]] def
15.00 15.00 sc P1 [16 0 0 -8 260.00 118.87] PATmp PATsp ef gr PATusp gs col-1 s gr 
% Polyline
n 3120 1783 m 3343 1783 l 3343 2006 l 3120 2006 l cp gs /PC [[1.00 1.00 1.00] [0.00 0.00 0.00]] def
15.00 15.00 sc P1 [16 0 0 -8 208.00 118.87] PATmp PATsp ef gr PATusp gs col-1 s gr 
% Polyline
n 4011 1337 m 4234 1337 l 4234 1560 l 4011 1560 l cp gs /PC [[1.00 1.00 1.00] [0.00 0.00 0.00]] def
15.00 15.00 sc P1 [16 0 0 -8 267.40 89.13] PATmp PATsp ef gr PATusp gs col-1 s gr 
% Polyline
n 1783 2229 m 1894 2229 l 1894 2451 l 1783 2451 l cp gs /PC [[1.00 1.00 1.00] [0.00 0.00 0.00]] def
15.00 15.00 sc P21 [16 0 0 -8 118.87 148.60] PATmp PATsp ef gr PATusp gs col-1 s gr 
% Polyline
n 2117 2229 m 2228 2229 l 2228 2451 l 2117 2451 l cp gs /PC [[1.00 1.00 1.00] [0.00 0.00 0.00]] def
15.00 15.00 sc P21 [16 0 0 -8 141.13 148.60] PATmp PATsp ef gr PATusp gs col-1 s gr 
% Polyline
n 2340 2451 m 2563 2451 l 2563 2229 l 2340 2229 l cp gs /PC [[1.00 1.00 1.00] [0.00 0.00 0.00]] def
15.00 15.00 sc P21 [16 0 0 -8 156.00 148.60] PATmp PATsp ef gr PATusp gs col-1 s gr 
% Polyline
n 2674 2229 m 2897 2229 l 2897 2451 l 2674 2451 l cp gs /PC [[1.00 1.00 1.00] [0.00 0.00 0.00]] def
15.00 15.00 sc P21 [16 0 0 -8 178.27 148.60] PATmp PATsp ef gr PATusp gs col-1 s gr 
% Polyline
n 3231 2229 m 3454 2229 l 3454 2451 l 3231 2451 l cp gs /PC [[1.00 1.00 1.00] [0.00 0.00 0.00]] def
15.00 15.00 sc P1 [16 0 0 -8 215.40 148.60] PATmp PATsp ef gr PATusp gs col-1 s gr 
% Polyline
n 3565 2229 m 3677 2229 l 3677 2451 l 3565 2451 l cp gs /PC [[1.00 1.00 1.00] [0.00 0.00 0.00]] def
15.00 15.00 sc P1 [16 0 0 -8 237.67 148.60] PATmp PATsp ef gr PATusp gs col-1 s gr 
% Polyline
n 3900 2229 m 4011 2229 l 4011 2451 l 3900 2451 l cp gs /PC [[1.00 1.00 1.00] [0.00 0.00 0.00]] def
15.00 15.00 sc P1 [16 0 0 -8 260.00 148.60] PATmp PATsp ef gr PATusp gs col-1 s gr 
% Polyline
n 4457 2229 m 4902 2229 l 4902 2451 l 4457 2451 l cp gs /PC [[1.00 1.00 1.00] [0.00 0.00 0.00]] def
15.00 15.00 sc P1 [16 0 0 -8 297.13 148.60] PATmp PATsp ef gr PATusp gs col-1 s gr 
% Polyline
n 4457 1560 m 4680 1560 l 4680 1337 l 4457 1337 l cp gs /PC [[1.00 1.00 1.00] [0.00 0.00 0.00]] def
15.00 15.00 sc P1 [16 0 0 -8 297.13 89.13] PATmp PATsp ef gr PATusp gs col-1 s gr 
% Polyline
n 4457 1114 m 4902 1114 l 4902 891 l 4457 891 l cp gs /PC [[1.00 1.00 1.00] [0.00 0.00 0.00]] def
15.00 15.00 sc P1 [16 0 0 -8 297.13 59.40] PATmp PATsp ef gr PATusp gs col-1 s gr 
% Polyline
n 4457 669 m 4902 669 l 4902 446 l 4457 446 l cp gs /PC [[1.00 1.00 1.00] [0.00 0.00 0.00]] def
15.00 15.00 sc P1 [16 0 0 -8 297.13 29.73] PATmp PATsp ef gr PATusp gs col-1 s gr 
% Polyline
n 4457 0 m 4568 0 l 4568 223 l 4457 223 l cp gs /PC [[1.00 1.00 1.00] [0.00 0.00 0.00]] def
15.00 15.00 sc P1 [16 0 0 -8 297.13 0.00] PATmp PATsp ef gr PATusp gs col-1 s gr 
% Polyline
n 446 2674 m 1560 2674 l 1560 2897 l 446 2897 l cp gs col-1 s gr 
% Polyline
n 446 2674 m 1560 2674 l 1560 2897 l 446 2897 l cp gs col7 1.00 shd ef gr gs col-1 s gr 
% Polyline
n 446 2674 m 1560 2674 l 1560 2897 l 446 2897 l cp gs /PC [[1.00 1.00 1.00] [0.00 0.00 0.00]] def
15.00 15.00 sc P1 [16 0 0 -8 29.73 178.27] PATmp PATsp ef gr PATusp gs col-1 s gr 
% Polyline
n 1783 2674 m 2897 2674 l 2897 2897 l 1783 2897 l cp gs col-1 s gr 
% Polyline
n 3120 2674 m 4234 2674 l 4234 2897 l 3120 2897 l cp gs col-1 s gr 
% Polyline
n 3120 2674 m 4234 2674 l 4234 2897 l 3120 2897 l cp gs /PC [[1.00 1.00 1.00] [0.00 0.00 0.00]] def
15.00 15.00 sc P1 [16 0 0 -8 208.00 178.27] PATmp PATsp ef gr PATusp gs col-1 s gr 
% Polyline
n 4457 2674 m 5571 2674 l 5571 2897 l 4457 2897 l cp gs /PC [[1.00 1.00 1.00] [0.00 0.00 0.00]] def
15.00 15.00 sc P1 [16 0 0 -8 297.13 178.27] PATmp PATsp ef gr PATusp gs col-1 s gr 
% Polyline
n 444 3118 m 1558 3118 l 1558 3341 l 444 3341 l cp gs col-1 s gr 
% Polyline
n 444 3118 m 1558 3118 l 1558 3341 l 444 3341 l cp gs col7 1.00 shd ef gr gs col-1 s gr 
% Polyline
n 1781 3118 m 2895 3118 l 2895 3341 l 1781 3341 l cp gs col-1 s gr 
% Polyline
n 444 3118 m 1558 3118 l 1558 3341 l 444 3341 l cp gs /PC [[1.00 1.00 1.00] [0.00 0.00 0.00]] def
15.00 15.00 sc P1 [16 0 0 -8 29.60 207.87] PATmp PATsp ef gr PATusp gs col-1 s gr 
% Polyline
n 1783 3120 m 1894 3120 l 1894 3343 l 1783 3343 l cp gs /PC [[1.00 1.00 1.00] [0.00 0.00 0.00]] def
15.00 15.00 sc P21 [16 0 0 -8 118.87 208.00] PATmp PATsp ef gr PATusp gs col-1 s gr 
% Polyline
n 1894 3120 m 2006 3120 l 2006 3343 l 1894 3343 l cp gs /PC [[1.00 1.00 1.00] [0.00 0.00 0.00]] def
15.00 15.00 sc P21 [16 0 0 -8 126.27 208.00] PATmp PATsp ef gr PATusp gs col-1 s gr 
% Polyline
n 2006 3120 m 2117 3120 l 2117 3343 l 2006 3343 l cp gs /PC [[1.00 1.00 1.00] [0.00 0.00 0.00]] def
15.00 15.00 sc P21 [16 0 0 -8 133.73 208.00] PATmp PATsp ef gr PATusp gs col-1 s gr 
% Polyline
n 2117 3120 m 2228 3120 l 2228 3343 l 2117 3343 l cp gs /PC [[1.00 1.00 1.00] [0.00 0.00 0.00]] def
15.00 15.00 sc P21 [16 0 0 -8 141.13 208.00] PATmp PATsp ef gr PATusp gs col-1 s gr 
% Polyline
n 2340 3120 m 2563 3120 l 2563 3343 l 2340 3343 l cp gs /PC [[1.00 1.00 1.00] [0.00 0.00 0.00]] def
15.00 15.00 sc P21 [16 0 0 -8 156.00 208.00] PATmp PATsp ef gr PATusp gs col-1 s gr 
% Polyline
n 3565 3120 m 3677 3120 l 3677 3343 l 3565 3343 l cp gs /PC [[1.00 1.00 1.00] [0.00 0.00 0.00]] def
15.00 15.00 sc P1 [16 0 0 -8 237.67 208.00] PATmp PATsp ef gr PATusp gs col-1 s gr 
% Polyline
n 2563 3120 m 2674 3120 l 2674 3343 l 2563 3343 l cp gs /PC [[1.00 1.00 1.00] [0.00 0.00 0.00]] def
15.00 15.00 sc P21 [16 0 0 -8 170.87 208.00] PATmp PATsp ef gr PATusp gs col-1 s gr 
% Polyline
n 4011 3120 m 4234 3120 l 4234 3343 l 4011 3343 l cp gs /PC [[1.00 1.00 1.00] [0.00 0.00 0.00]] def
15.00 15.00 sc P1 [16 0 0 -8 267.40 208.00] PATmp PATsp ef gr PATusp gs col-1 s gr 
% Polyline
n 4457 3120 m 4791 3120 l 4791 3343 l 4457 3343 l cp gs /PC [[1.00 1.00 1.00] [0.00 0.00 0.00]] def
15.00 15.00 sc P1 [16 0 0 -8 297.13 208.00] PATmp PATsp ef gr PATusp gs col-1 s gr 
% Polyline
n 3118 3118 m 4232 3118 l 4232 3341 l 3118 3341 l cp gs col-1 s gr 
% Polyline
n 4457 1783 m 5014 1783 l 5014 2006 l 4457 2006 l cp gs /PC [[1.00 1.00 1.00] [0.00 0.00 0.00]] def
15.00 15.00 sc P1 [16 0 0 -8 297.13 118.87] PATmp PATsp ef gr PATusp gs col-1 s gr 
/Times-Roman ff 195.00 scf sf
0 2841 m
gs 1 -1 sc (F7 = ) col-1 sh gr
/Times-Roman ff 195.00 scf sf
0 2396 m
gs 1 -1 sc (F6 =) col-1 sh gr
/Times-Roman ff 195.00 scf sf
0 1950 m
gs 1 -1 sc (F5 =) col-1 sh gr
/Times-Roman ff 195.00 scf sf
0 1059 m
gs 1 -1 sc (F3 =) col-1 sh gr
/Times-Roman ff 195.00 scf sf
0 613 m
gs 1 -1 sc (F2 =) col-1 sh gr
/Times-Roman ff 195.00 scf sf
0 167 m
gs 1 -1 sc (F1 =) col-1 sh gr
/Times-Roman ff 195.00 scf sf
0 3287 m
gs 1 -1 sc (F8 =) col-1 sh gr
/Courier ff 195.00 scf sf
446 223 m
gs 1 -1 sc (DISULPHIDE) col-1 sh gr
/Courier ff 195.00 scf sf
446 669 m
gs 1 -1 sc (BISULPHIDE) col-1 sh gr
/Courier ff 195.00 scf sf
446 1114 m
gs 1 -1 sc (DISELENIDE) col-1 sh gr
/Courier ff 195.00 scf sf
446 1560 m
gs 1 -1 sc (DISULPHINE) col-1 sh gr
/Courier ff 195.00 scf sf
446 2006 m
gs 1 -1 sc (ESSELENIAN) col-1 sh gr
/Courier ff 195.00 scf sf
446 2451 m
gs 1 -1 sc (DISULPHONE) col-1 sh gr
/Courier ff 195.00 scf sf
1894 223 m
gs 1 -1 sc (ISULPHIDE) col-1 sh gr
/Courier ff 195.00 scf sf
3120 223 m
gs 1 -1 sc (D) col-1 sh gr
/Courier ff 195.00 scf sf
1894 669 m
gs 1 -1 sc (IS) col-1 sh gr
/Courier ff 195.00 scf sf
2228 669 m
gs 1 -1 sc (L) col-1 sh gr
/Courier ff 195.00 scf sf
2563 669 m
gs 1 -1 sc (IDE) col-1 sh gr
/Courier ff 195.00 scf sf
3120 669 m
gs 1 -1 sc (B) col-1 sh gr
/Courier ff 195.00 scf sf
3454 669 m
gs 1 -1 sc (U) col-1 sh gr
/Courier ff 195.00 scf sf
3677 669 m
gs 1 -1 sc (PH) col-1 sh gr
/Courier ff 195.00 scf sf
3454 1114 m
gs 1 -1 sc (E EN D) col-1 sh gr
/Courier ff 195.00 scf sf
1783 1114 m
gs 1 -1 sc (DIS L  I E) col-1 sh gr
/Courier ff 195.00 scf sf
3120 2006 m
gs 1 -1 sc (ES) col-1 sh gr
/Courier ff 195.00 scf sf
3900 2006 m
gs 1 -1 sc (IAN) col-1 sh gr
/Courier ff 195.00 scf sf
2006 2006 m
gs 1 -1 sc (SELEN) col-1 sh gr
/Courier ff 195.00 scf sf
1783 1560 m
gs 1 -1 sc (DISULPHI) col-1 sh gr
/Courier ff 195.00 scf sf
4011 1560 m
gs 1 -1 sc (NE) col-1 sh gr
/Courier ff 195.00 scf sf
1783 2451 m
gs 1 -1 sc (D  U PH NE) col-1 sh gr
/Courier ff 195.00 scf sf
3120 2451 m
gs 1 -1 sc ( IS U  O) col-1 sh gr
/Courier ff 195.00 scf sf
446 2897 m
gs 1 -1 sc (TROEZENIAN) col-1 sh gr
/Courier ff 195.00 scf sf
3120 2897 m
gs 1 -1 sc (TROEZENIAN) col-1 sh gr
/Courier ff 195.00 scf sf
444 3313 m
gs 1 -1 sc (ESSELENIST) col-1 sh gr
/Times-Roman ff 195.00 scf sf
1616 3287 m
gs 1 -1 sc (=) col-1 sh gr
/Times-Roman ff 195.00 scf sf
1616 2841 m
gs 1 -1 sc (=) col-1 sh gr
/Times-Roman ff 195.00 scf sf
1616 2396 m
gs 1 -1 sc (=) col-1 sh gr
/Times-Roman ff 195.00 scf sf
1616 1950 m
gs 1 -1 sc (=) col-1 sh gr
/Times-Roman ff 195.00 scf sf
1616 1504 m
gs 1 -1 sc (=) col-1 sh gr
/Times-Roman ff 195.00 scf sf
1616 1059 m
gs 1 -1 sc (=) col-1 sh gr
/Times-Roman ff 195.00 scf sf
1616 613 m
gs 1 -1 sc (=) col-1 sh gr
/Times-Roman ff 195.00 scf sf
1616 167 m
gs 1 -1 sc (=) col-1 sh gr
/Times-Roman ff 195.00 scf sf
2953 3287 m
gs 1 -1 sc (+) col-1 sh gr
/Times-Roman ff 195.00 scf sf
2953 2396 m
gs 1 -1 sc (+) col-1 sh gr
/Times-Roman ff 195.00 scf sf
2953 1950 m
gs 1 -1 sc (+) col-1 sh gr
/Times-Roman ff 195.00 scf sf
2953 1504 m
gs 1 -1 sc (+) col-1 sh gr
/Times-Roman ff 195.00 scf sf
2953 1059 m
gs 1 -1 sc (+) col-1 sh gr
/Times-Roman ff 195.00 scf sf
2953 613 m
gs 1 -1 sc (+) col-1 sh gr
/Times-Roman ff 195.00 scf sf
2953 167 m
gs 1 -1 sc (+) col-1 sh gr
/Times-Roman ff 195.00 scf sf
2953 2841 m
gs 1 -1 sc (+) col-1 sh gr
/Times-Roman ff 195.00 scf sf
0 1504 m
gs 1 -1 sc (F4 =) col-1 sh gr
/Times-Roman ff 195.00 scf sf
4290 3287 m
gs 1 -1 sc (=) col-1 sh gr
/Times-Roman ff 195.00 scf sf
4290 2841 m
gs 1 -1 sc (=) col-1 sh gr
/Times-Roman ff 195.00 scf sf
4290 2368 m
gs 1 -1 sc (=) col-1 sh gr
/Times-Roman ff 195.00 scf sf
4290 1950 m
gs 1 -1 sc (=) col-1 sh gr
/Times-Roman ff 195.00 scf sf
4290 1476 m
gs 1 -1 sc (=) col-1 sh gr
/Times-Roman ff 195.00 scf sf
4290 1059 m
gs 1 -1 sc (=) col-1 sh gr
/Times-Roman ff 195.00 scf sf
4290 613 m
gs 1 -1 sc (=) col-1 sh gr
/Times-Roman ff 195.00 scf sf
4290 167 m
gs 1 -1 sc (=) col-1 sh gr
/Courier ff 195.00 scf sf
1783 3343 m
gs 1 -1 sc (ESSE ENI        L   ST) col-1 sh gr
/Courier ff 195.00 scf sf
4457 223 m
gs 1 -1 sc (D) col-1 sh gr
/Courier ff 195.00 scf sf
4457 669 m
gs 1 -1 sc (BUPH) col-1 sh gr
/Courier ff 195.00 scf sf
4457 1114 m
gs 1 -1 sc (EEND) col-1 sh gr
/Courier ff 195.00 scf sf
4457 1560 m
gs 1 -1 sc (NE) col-1 sh gr
/Courier ff 195.00 scf sf
4457 2006 m
gs 1 -1 sc (ESIAN) col-1 sh gr
/Courier ff 195.00 scf sf
4457 2451 m
gs 1 -1 sc (ISUO) col-1 sh gr
/Courier ff 195.00 scf sf
4457 2897 m
gs 1 -1 sc (TROEZENIAN) col-1 sh gr
/Courier ff 195.00 scf sf
669 3594 m
gs 1 -1 sc (Actual ) col-1 sh gr
$F2psEnd
rs
end
