%!PS-Adobe-3.0 EPSF-3.0
%%Creator: MATLAB, The Mathworks, Inc.
%%Title: ../figs/sizes.eps
%%CreationDate: 11/14/98  04:51:39
%%DocumentNeededFonts: Helvetica
%%DocumentProcessColors: Cyan Magenta Yellow Black
%%LanguageLevel: 2
%%Pages: 1
%%BoundingBox:    65   196   560   616
%%EndComments

%%BeginProlog

% MathWorks dictionary
/MathWorks 150 dict begin

% definition operators
/bdef {bind def} bind def
/ldef {load def} bind def
/xdef {exch def} bdef
/xstore {exch store} bdef

% operator abbreviations
/c  /clip ldef
/cc /concat ldef
/cp /closepath ldef
/gr /grestore ldef
/gs /gsave ldef
/mt /moveto ldef
/np /newpath ldef
/cm /currentmatrix ldef
/sm /setmatrix ldef
/rc {rectclip} bdef
/rf {rectfill} bdef
/rm /rmoveto ldef
/rl /rlineto ldef
/s /show ldef
/sc {setcmykcolor} bdef
/sr /setrgbcolor ldef
/sg /setgray ldef
/w /setlinewidth ldef
/j /setlinejoin ldef
/cap /setlinecap ldef

% page state control
/pgsv () def
/bpage {/pgsv save def} bdef
/epage {pgsv restore} bdef
/bplot /gsave ldef
/eplot {stroke grestore} bdef

% orientation switch
/portraitMode 	0 def
/landscapeMode 	1 def

% coordinate system mappings
/dpi2point 0 def

% font control
/FontSize 0 def
/FMS {
	/FontSize xstore		%save size off stack
	findfont
	[FontSize 0 0 FontSize neg 0 0]
	makefont
	setfont
	}bdef

/reencode {
exch dup where
{pop load} {pop StandardEncoding} ifelse
exch
dup 3 1 roll
findfont dup length dict begin
  { 1 index /FID ne {def}{pop pop} ifelse } forall
  /Encoding exch def
  currentdict
end
definefont pop
} bdef

/isroman {
findfont /CharStrings get
/Agrave known
} bdef

/FMSR {
3 1 roll 1 index
dup isroman
{reencode} {pop pop} ifelse
exch FMS
} bdef

/csm {
	1 dpi2point div -1 dpi2point div scale
	neg translate
	landscapeMode eq {90 rotate} if
	} bdef

% line types: solid, dotted, dashed, dotdash
/SO { [] 0 setdash } bdef
/DO { [.5 dpi2point mul 4 dpi2point mul] 0 setdash } bdef
/DA { [6 dpi2point mul] 0 setdash } bdef
/DD { [.5 dpi2point mul 4 dpi2point mul 6 dpi2point mul 4 dpi2point mul] 0 setdash } bdef

% macros for lines and objects
/L {
	lineto
	stroke
	} bdef
/MP {
	3 1 roll moveto
	1 sub {rlineto} repeat
	} bdef
/AP {
	{rlineto} repeat
	} bdef
/PP {
	closepath eofill
	} bdef
/DP {
	closepath stroke
	} bdef
/MR {
	4 -2 roll moveto
	dup  0 exch rlineto
	exch 0 rlineto
	neg  0 exch rlineto
	closepath
	} bdef
/FR {
	MR stroke
	} bdef
/PR {
	MR fill
	} bdef
/L1i {
	{ currentfile picstr readhexstring pop } image
	} bdef

/tMatrix matrix def
/MakeOval {
	newpath
	tMatrix currentmatrix pop
	translate scale
	0 0 1 0 360 arc
	tMatrix setmatrix
	} bdef
/FO {
	MakeOval
	stroke
	} bdef
/PO {
	MakeOval
	fill
	} bdef

/PD {
	currentlinecap 1 setlinecap 3 1 roll 2 copy moveto lineto stroke setlinecap
	} bdef

/FA {
	newpath
	tMatrix currentmatrix pop
	translate scale
	0 0 1 5 -2 roll arc
	tMatrix setmatrix
	stroke
	} bdef
/PA {
	newpath
	tMatrix currentmatrix pop
	translate 0 0 moveto scale
	0 0 1 5 -2 roll arc
	closepath
	tMatrix setmatrix
	fill
	} bdef


/FAn {
	newpath
	tMatrix currentmatrix pop
	translate scale
	0 0 1 5 -2 roll arcn
	tMatrix setmatrix
	stroke
	} bdef
/PAn {
	newpath
	tMatrix currentmatrix pop
	translate 0 0 moveto scale
	0 0 1 5 -2 roll arcn
	closepath
	tMatrix setmatrix
	fill
	} bdef



currentdict end def
%%EndProlog

%%BeginSetup
MathWorks begin

0 cap

end
%%EndSetup

%%Page: 1 1
%%BeginPageSetup
%%PageBoundingBox:    65   196   560   616
MathWorks begin
bpage
%%EndPageSetup

%%BeginObject: graph1 1
bplot

/dpi2point 12 def
portraitMode 0216 7344 csm

  566   -48  5940  5037 rc
88 dict begin %Colortable dictionary
/c0 { 0 0 0 sr} bdef
/c1 { 1 1 1 sr} bdef
/c2 { 1 0 0 sr} bdef
/c3 { 0 1 0 sr} bdef
/c4 { 0 0 1 sr} bdef
/c5 { 1 1 0 sr} bdef
/c6 { 1 0 1 sr} bdef
/c7 { 0 1 1 sr} bdef
1 j
1 sg
   0    0 6916 5185 rf
6 w
0 4225 5358 0 0 -4225 899 4613 4 MP
PP
-5358 0 0 4225 5358 0 0 -4225 899 4613 5 MP stroke
DO
4 w
SO
6 w
0 sg
 899 4613 mt 6257 4613 L
 899  388 mt 6257  388 L
 899 4613 mt  899  388 L
6257 4613 mt 6257  388 L
 899 4613 mt 6257 4613 L
 899 4613 mt  899  388 L
 899 4613 mt  899 4559 L
 899  388 mt  899  442 L
%%IncludeResource: font Helvetica
/Helvetica /ISOLatin1Encoding 120 FMSR

 866 4759 mt 
(0) s
1569 4613 mt 1569 4559 L
1569  388 mt 1569  442 L
1403 4759 mt 
(50000) s
2239 4613 mt 2239 4559 L
2239  388 mt 2239  442 L
2039 4759 mt 
(100000) s
2908 4613 mt 2908 4559 L
2908  388 mt 2908  442 L
2708 4759 mt 
(150000) s
3578 4613 mt 3578 4559 L
3578  388 mt 3578  442 L
3378 4759 mt 
(200000) s
4248 4613 mt 4248 4559 L
4248  388 mt 4248  442 L
4048 4759 mt 
(250000) s
4918 4613 mt 4918 4559 L
4918  388 mt 4918  442 L
4718 4759 mt 
(300000) s
5587 4613 mt 5587 4559 L
5587  388 mt 5587  442 L
5387 4759 mt 
(350000) s
6257 4613 mt 6257 4559 L
6257  388 mt 6257  442 L
6057 4759 mt 
(400000) s
 899 4613 mt  953 4613 L
6257 4613 mt 6203 4613 L
 798 4657 mt 
(0) s
 899 4144 mt  953 4144 L
6257 4144 mt 6203 4144 L
 798 4188 mt 
(2) s
 899 3674 mt  953 3674 L
6257 3674 mt 6203 3674 L
 798 3718 mt 
(4) s
 899 3205 mt  953 3205 L
6257 3205 mt 6203 3205 L
 798 3249 mt 
(6) s
 899 2735 mt  953 2735 L
6257 2735 mt 6203 2735 L
 798 2779 mt 
(8) s
 899 2266 mt  953 2266 L
6257 2266 mt 6203 2266 L
 731 2310 mt 
(10) s
 899 1796 mt  953 1796 L
6257 1796 mt 6203 1796 L
 731 1840 mt 
(12) s
 899 1327 mt  953 1327 L
6257 1327 mt 6203 1327 L
 731 1371 mt 
(14) s
 899  857 mt  953  857 L
6257  857 mt 6203  857 L
 731  901 mt 
(16) s
 899  388 mt  953  388 L
6257  388 mt 6203  388 L
 731  432 mt 
(18) s
 899 4613 mt 6257 4613 L
 899  388 mt 6257  388 L
 899 4613 mt  899  388 L
6257 4613 mt 6257  388 L
gs 899 388 5359 4226 rc
/c8 { 1.000000 0.000000 0.000000 sr} bdef
c8
0 701 939 3735 2 MP stroke
94 0 892 3735 2 MP stroke
94 0 892 4436 2 MP stroke
0 520 1073 3899 2 MP stroke
94 0 1026 3899 2 MP stroke
94 0 1026 4419 2 MP stroke
0 565 1207 3863 2 MP stroke
94 0 1160 3863 2 MP stroke
94 0 1160 4428 2 MP stroke
0 524 1341 3912 2 MP stroke
94 0 1294 3912 2 MP stroke
94 0 1294 4436 2 MP stroke
0 537 1475 3911 2 MP stroke
94 0 1428 3911 2 MP stroke
94 0 1428 4448 2 MP stroke
0 531 1609 3932 2 MP stroke
94 0 1562 3932 2 MP stroke
94 0 1562 4463 2 MP stroke
0 429 1743 4033 2 MP stroke
94 0 1696 4033 2 MP stroke
94 0 1696 4462 2 MP stroke
0 469 1877 3999 2 MP stroke
94 0 1830 3999 2 MP stroke
94 0 1830 4468 2 MP stroke
0 475 2011 3947 2 MP stroke
94 0 1964 3947 2 MP stroke
94 0 1964 4422 2 MP stroke
0 537 2145 3952 2 MP stroke
94 0 2098 3952 2 MP stroke
94 0 2098 4489 2 MP stroke
0 643 2279 3785 2 MP stroke
94 0 2232 3785 2 MP stroke
94 0 2232 4428 2 MP stroke
0 289 2413 4149 2 MP stroke
94 0 2366 4149 2 MP stroke
94 0 2366 4438 2 MP stroke
0 398 2547 4055 2 MP stroke
93 0 2500 4055 2 MP stroke
93 0 2500 4453 2 MP stroke
0 117 2681 4306 2 MP stroke
93 0 2634 4306 2 MP stroke
93 0 2634 4423 2 MP stroke
0 787 2814 3762 2 MP stroke
93 0 2768 3762 2 MP stroke
93 0 2768 4549 2 MP stroke
0 1316 2948 3182 2 MP stroke
93 0 2902 3182 2 MP stroke
93 0 2902 4498 2 MP stroke
0 992 3082 3621 2 MP stroke
93 0 3036 3621 2 MP stroke
93 0 3036 4613 2 MP stroke
0 678 3216 3863 2 MP stroke
94 0 3169 3863 2 MP stroke
94 0 3169 4541 2 MP stroke
0 766 3350 3847 2 MP stroke
94 0 3303 3847 2 MP stroke
94 0 3303 4613 2 MP stroke
0 101 3484 4280 2 MP stroke
94 0 3437 4280 2 MP stroke
94 0 3437 4381 2 MP stroke
0 2112 3618 2501 2 MP stroke
94 0 3571 2501 2 MP stroke
94 0 3571 4613 2 MP stroke
0 260 3752 4096 2 MP stroke
94 0 3705 4096 2 MP stroke
94 0 3705 4356 2 MP stroke
0 4112 4020 501 2 MP stroke
94 0 3973 501 2 MP stroke
94 0 3973 4613 2 MP stroke
0 887 4154 3567 2 MP stroke
94 0 4107 3567 2 MP stroke
94 0 4107 4454 2 MP stroke
0 311 4288 4104 2 MP stroke
94 0 4241 4104 2 MP stroke
94 0 4241 4415 2 MP stroke
0 1338 4422 3219 2 MP stroke
94 0 4375 3219 2 MP stroke
94 0 4375 4557 2 MP stroke
0 1935 5226 2678 2 MP stroke
93 0 5179 2678 2 MP stroke
93 0 5179 4613 2 MP stroke
0 343 5360 4087 2 MP stroke
93 0 5313 4087 2 MP stroke
93 0 5313 4430 2 MP stroke
0 118 5627 4495 2 MP stroke
93 0 5581 4495 2 MP stroke
93 0 5581 4613 2 MP stroke

gr 
c8
  36   36  939 4085 FO
  36   36 1073 4159 FO
  36   36 1207 4145 FO
  36   36 1341 4174 FO
  36   36 1475 4179 FO
  36   36 1609 4197 FO
  36   36 1743 4248 FO
  36   36 1877 4234 FO
  36   36 2011 4184 FO
  36   36 2145 4221 FO
  36   36 2279 4106 FO
  36   36 2413 4294 FO
  36   36 2547 4254 FO
  36   36 2681 4364 FO
  36   36 2814 4155 FO
  36   36 2948 3840 FO
  36   36 3082 4117 FO
  36   36 3216 4202 FO
  36   36 3350 4230 FO
  36   36 3484 4331 FO
  36   36 3618 3822 FO
  36   36 3752 4226 FO
  36   36 4020 3285 FO
  36   36 4154 4011 FO
  36   36 4288 4259 FO
  36   36 4422 3888 FO
  36   36 5226 3645 FO
  36   36 5360 4258 FO
  36   36 5627 4554 FO
gs 899 388 5359 4226 rc
/c9 { 0.000000 0.000000 1.000000 sr} bdef
c9
0 1803 966 2652 2 MP stroke
94 0 919 2652 2 MP stroke
94 0 919 4455 2 MP stroke
0 1317 1100 3068 2 MP stroke
94 0 1053 3068 2 MP stroke
94 0 1053 4385 2 MP stroke
0 1366 1234 3010 2 MP stroke
94 0 1187 3010 2 MP stroke
94 0 1187 4376 2 MP stroke
0 1304 1368 3094 2 MP stroke
94 0 1321 3094 2 MP stroke
94 0 1321 4398 2 MP stroke
0 1078 1502 3280 2 MP stroke
94 0 1455 3280 2 MP stroke
94 0 1455 4358 2 MP stroke
0 1155 1636 3247 2 MP stroke
94 0 1589 3247 2 MP stroke
94 0 1589 4402 2 MP stroke
0 913 1770 3473 2 MP stroke
94 0 1723 3473 2 MP stroke
94 0 1723 4386 2 MP stroke
0 868 1904 3503 2 MP stroke
94 0 1857 3503 2 MP stroke
94 0 1857 4371 2 MP stroke
0 972 2038 3322 2 MP stroke
93 0 1991 3322 2 MP stroke
93 0 1991 4294 2 MP stroke
0 950 2172 3448 2 MP stroke
93 0 2125 3448 2 MP stroke
93 0 2125 4398 2 MP stroke
0 955 2305 3287 2 MP stroke
93 0 2259 3287 2 MP stroke
93 0 2259 4242 2 MP stroke
0 922 2439 3553 2 MP stroke
93 0 2393 3553 2 MP stroke
93 0 2393 4475 2 MP stroke
0 946 2573 3449 2 MP stroke
94 0 2526 3449 2 MP stroke
94 0 2526 4395 2 MP stroke
0 356 2707 4083 2 MP stroke
94 0 2660 4083 2 MP stroke
94 0 2660 4439 2 MP stroke
0 1027 2841 3442 2 MP stroke
94 0 2794 3442 2 MP stroke
94 0 2794 4469 2 MP stroke
0 940 2975 3239 2 MP stroke
94 0 2928 3239 2 MP stroke
94 0 2928 4179 2 MP stroke
0 923 3109 3690 2 MP stroke
94 0 3062 3690 2 MP stroke
94 0 3062 4613 2 MP stroke
0 1293 3243 3297 2 MP stroke
94 0 3196 3297 2 MP stroke
94 0 3196 4590 2 MP stroke
0 686 3377 3927 2 MP stroke
94 0 3330 3927 2 MP stroke
94 0 3330 4613 2 MP stroke
0 383 3511 4010 2 MP stroke
94 0 3464 4010 2 MP stroke
94 0 3464 4393 2 MP stroke
0 1395 3645 3036 2 MP stroke
94 0 3598 3036 2 MP stroke
94 0 3598 4431 2 MP stroke
0 157 3779 4122 2 MP stroke
94 0 3732 4122 2 MP stroke
94 0 3732 4279 2 MP stroke
0 881 4047 3563 2 MP stroke
94 0 4000 3563 2 MP stroke
94 0 4000 4444 2 MP stroke
0 1226 4181 3089 2 MP stroke
94 0 4134 3089 2 MP stroke
94 0 4134 4315 2 MP stroke
0 254 4315 4090 2 MP stroke
94 0 4268 4090 2 MP stroke
94 0 4268 4344 2 MP stroke
0 489 4449 3828 2 MP stroke
94 0 4402 3828 2 MP stroke
94 0 4402 4317 2 MP stroke
0 1007 5252 3606 2 MP stroke
94 0 5205 3606 2 MP stroke
94 0 5205 4613 2 MP stroke
0 216 5386 4142 2 MP stroke
94 0 5339 4142 2 MP stroke
94 0 5339 4358 2 MP stroke
0 86 5654 4527 2 MP stroke
94 0 5607 4527 2 MP stroke
94 0 5607 4613 2 MP stroke

gr 
c9
0 j
0 -58 -58 0 0 58 58 0 937 3525 5 MP
DP
0 -58 -58 0 0 58 58 0 1071 3698 5 MP
DP
0 -58 -58 0 0 58 58 0 1205 3664 5 MP
DP
0 -58 -58 0 0 58 58 0 1339 3717 5 MP
DP
0 -58 -58 0 0 58 58 0 1473 3790 5 MP
DP
0 -58 -58 0 0 58 58 0 1607 3796 5 MP
DP
0 -58 -58 0 0 58 58 0 1741 3901 5 MP
DP
0 -58 -58 0 0 58 58 0 1875 3908 5 MP
DP
0 -58 -58 0 0 58 58 0 2009 3779 5 MP
DP
0 -58 -58 0 0 58 58 0 2143 3894 5 MP
DP
0 -58 -58 0 0 58 58 0 2276 3736 5 MP
DP
0 -58 -58 0 0 58 58 0 2410 3985 5 MP
DP
0 -58 -58 0 0 58 58 0 2544 3893 5 MP
DP
0 -58 -58 0 0 58 58 0 2678 4232 5 MP
DP
0 -58 -58 0 0 58 58 0 2812 3927 5 MP
DP
0 -58 -58 0 0 58 58 0 2946 3680 5 MP
DP
0 -58 -58 0 0 58 58 0 3080 4122 5 MP
DP
0 -58 -58 0 0 58 58 0 3214 3915 5 MP
DP
0 -58 -58 0 0 58 58 0 3348 4241 5 MP
DP
0 -58 -58 0 0 58 58 0 3482 4172 5 MP
DP
0 -58 -58 0 0 58 58 0 3616 3704 5 MP
DP
0 -58 -58 0 0 58 58 0 3750 4172 5 MP
DP
0 -58 -58 0 0 58 58 0 4018 3974 5 MP
DP
0 -58 -58 0 0 58 58 0 4152 3673 5 MP
DP
0 -58 -58 0 0 58 58 0 4286 4188 5 MP
DP
0 -58 -58 0 0 58 58 0 4420 4043 5 MP
DP
0 -58 -58 0 0 58 58 0 5223 4081 5 MP
DP
0 -58 -58 0 0 58 58 0 5357 4221 5 MP
DP
0 -58 -58 0 0 58 58 0 5625 4541 5 MP
DP
gs 899 388 5359 4226 rc

gr 
0 sg
 677 2927 mt  -90 rotate
(Delta Size Ratio) s
90 rotate
3066 4901 mt 
(To File Size \(bytes\)) s
gs 899 388 5359 4226 rc
c8
267 296 134 613 804 -243 134 -371 134 248 134 726 268 -941 134 404 
134 -509 134 101 134 28 134 85 134 277 134 -315 133 -209 134 110 
134 -40 134 188 134 -115 134 37 134 -50 134 -14 134 51 134 18 
134 5 134 29 134 -14 134 74 939 4085 29 MP stroke
c9
268 320 134 140 803 38 134 -145 134 515 134 -301 268 -198 134 468 
134 -468 134 -69 134 326 134 -207 134 442 134 -247 134 -305 134 339 
134 -92 134 249 133 -158 134 115 134 -129 134 7 134 105 134 6 
134 73 134 53 134 -34 134 173 966 3554 29 MP stroke

gr 
c9
1 sg
0 710 2338 0 0 -710 3781 1202 4 MP
PP
-2338 0 0 710 2338 0 0 -710 3781 1202 5 MP stroke
DO
4 w
SO
6 w
0 sg
3781 1202 mt 6119 1202 L
3781  492 mt 6119  492 L
3781 1202 mt 3781  492 L
6119 1202 mt 6119  492 L
3781 1202 mt 6119 1202 L
3781 1202 mt 3781  492 L
3781 1202 mt 6119 1202 L
3781  492 mt 6119  492 L
3781 1202 mt 3781  492 L
6119 1202 mt 6119  492 L
4584  678 mt 
(Vdelta standard deviation) s
gs 3781 492 2339 711 rc
c8
429 0 3888 634 2 MP stroke

gr 
c8
0 sg
4584  820 mt 
(Vdelta mean              ) s
gs 3781 492 2339 711 rc

gr 
c8
  36   36 3888  776 FO
  36   36 4317  776 FO
gs 3781 492 2339 711 rc

gr 
0 sg
4584  962 mt 
(Xdelta standard deviation) s
gs 3781 492 2339 711 rc
c9
429 0 3888 918 2 MP stroke

gr 
c9
0 sg
4584 1104 mt 
(Xdelta mean              ) s
gs 3781 492 2339 711 rc

gr 
0 -58 -58 0 0 58 58 0 3859 1031 5 MP
c9
DP
0 -58 -58 0 0 58 58 0 4288 1031 5 MP
DP
gs 3781 492 2339 711 rc

gr 

end

eplot
%%EndObject graph 1

epage
end

showpage

%%Trailer
%%EOF
