%!PS-Adobe-2.0 EPSF-2.0
%%Title: strings.fig.normalsize
%%Creator: fig2dev Version 3.1 Patchlevel 2
%%CreationDate: Sun Nov  8 04:02:56 1998
%%For: jmacd@axis.hip.berkeley.edu (Josh)
%%Orientation: Portrait
%%BoundingBox: 0 0 161 153
%%Pages: 0
%%BeginSetup
%%IncludeFeature: *PageSize Letter
%%EndSetup
%Magnification: 1.00
%%EndComments
/$F2psDict 200 dict def
$F2psDict begin
$F2psDict /mtrx matrix put
/col-1 {0 setgray} bind def
/col0 {0.000 0.000 0.000 srgb} bind def
/col1 {0.000 0.000 1.000 srgb} bind def
/col2 {0.000 1.000 0.000 srgb} bind def
/col3 {0.000 1.000 1.000 srgb} bind def
/col4 {1.000 0.000 0.000 srgb} bind def
/col5 {1.000 0.000 1.000 srgb} bind def
/col6 {1.000 1.000 0.000 srgb} bind def
/col7 {1.000 1.000 1.000 srgb} bind def
/col8 {0.000 0.000 0.560 srgb} bind def
/col9 {0.000 0.000 0.690 srgb} bind def
/col10 {0.000 0.000 0.820 srgb} bind def
/col11 {0.530 0.810 1.000 srgb} bind def
/col12 {0.000 0.560 0.000 srgb} bind def
/col13 {0.000 0.690 0.000 srgb} bind def
/col14 {0.000 0.820 0.000 srgb} bind def
/col15 {0.000 0.560 0.560 srgb} bind def
/col16 {0.000 0.690 0.690 srgb} bind def
/col17 {0.000 0.820 0.820 srgb} bind def
/col18 {0.560 0.000 0.000 srgb} bind def
/col19 {0.690 0.000 0.000 srgb} bind def
/col20 {0.820 0.000 0.000 srgb} bind def
/col21 {0.560 0.000 0.560 srgb} bind def
/col22 {0.690 0.000 0.690 srgb} bind def
/col23 {0.820 0.000 0.820 srgb} bind def
/col24 {0.500 0.190 0.000 srgb} bind def
/col25 {0.630 0.250 0.000 srgb} bind def
/col26 {0.750 0.380 0.000 srgb} bind def
/col27 {1.000 0.500 0.500 srgb} bind def
/col28 {1.000 0.630 0.630 srgb} bind def
/col29 {1.000 0.750 0.750 srgb} bind def
/col30 {1.000 0.880 0.880 srgb} bind def
/col31 {1.000 0.840 0.000 srgb} bind def

end
save
0.0 155.0 translate
1 -1 scale

/cp {closepath} bind def
/ef {eofill} bind def
/gr {grestore} bind def
/gs {gsave} bind def
/sa {save} bind def
/rs {restore} bind def
/l {lineto} bind def
/m {moveto} bind def
/rm {rmoveto} bind def
/n {newpath} bind def
/s {stroke} bind def
/sh {show} bind def
/slc {setlinecap} bind def
/slj {setlinejoin} bind def
/slw {setlinewidth} bind def
/srgb {setrgbcolor} bind def
/rot {rotate} bind def
/sc {scale} bind def
/sd {setdash} bind def
/ff {findfont} bind def
/sf {setfont} bind def
/scf {scalefont} bind def
/sw {stringwidth} bind def
/tr {translate} bind def
/tnt {dup dup currentrgbcolor
  4 -2 roll dup 1 exch sub 3 -1 roll mul add
  4 -2 roll dup 1 exch sub 3 -1 roll mul add
  4 -2 roll dup 1 exch sub 3 -1 roll mul add srgb}
  bind def
/shd {dup dup currentrgbcolor 4 -2 roll mul 4 -2 roll mul
  4 -2 roll mul srgb} bind def
/$F2psBegin {$F2psDict begin /$F2psEnteredState save def} def
/$F2psEnd {$F2psEnteredState restore end} def
%%EndProlog

$F2psBegin
10 setmiterlimit
n 0 792 m 0 0 l 612 0 l 612 792 l cp clip
 0.06000 0.06000 sc
/Times-Roman ff 135.00 scf sf
388 109 m
gs 1 -1 sc (8.) col-1 sh gr
7.500 slw
% Polyline
gs  clippath
719 1810 m 655 1704 l 761 1768 l 647 1653 l 604 1696 l  cp clip
n 872 1921 m 636 1685 l gs col-1 s gr gr

% arrowhead
n 719 1810 m 655 1704 l 761 1768 l 740 1789 l 719 1810 l  cp gs 0.00 setgray ef gr  col-1 s
% Polyline
gs  clippath
326 1339 m 262 1233 l 368 1297 l 254 1182 l 211 1225 l  cp clip
n 479 1450 m 243 1214 l gs col-1 s gr gr

% arrowhead
n 326 1339 m 262 1233 l 368 1297 l 347 1318 l 326 1339 l  cp gs 0.00 setgray ef gr  col-1 s
% Polyline
gs  clippath
1690 1768 m 1795 1704 l 1732 1810 l 1847 1696 l 1804 1653 l  cp clip
n 1579 1921 m 1815 1685 l gs col-1 s gr gr

% arrowhead
n 1690 1768 m 1795 1704 l 1732 1810 l 1711 1789 l 1690 1768 l  cp gs 0.00 setgray ef gr  col-1 s
% Polyline
gs  clippath
354 746 m 459 682 l 396 788 l 511 674 l 468 631 l  cp clip
n 243 899 m 479 663 l gs col-1 s gr gr

% arrowhead
n 354 746 m 459 682 l 396 788 l 375 767 l 354 746 l  cp gs 0.00 setgray ef gr  col-1 s
% Polyline
gs  clippath
1741 1339 m 1677 1233 l 1783 1297 l 1669 1182 l 1626 1225 l  cp clip
n 1894 1450 m 1658 1214 l gs col-1 s gr gr

% arrowhead
n 1741 1339 m 1677 1233 l 1783 1297 l 1762 1318 l 1741 1339 l  cp gs 0.00 setgray ef gr  col-1 s
% Polyline
gs  clippath
606 339 m 636 219 l 666 339 l 666 177 l 606 177 l  cp clip
n 636 428 m 636 192 l gs col-1 s gr gr

% arrowhead
n 606 339 m 636 219 l 666 339 l 636 339 l 606 339 l  cp gs 0.00 setgray ef gr  col-1 s
/Times-Roman ff 135.00 scf sf
557 113 m
gs 1 -1 sc (ESSELENIST) col-1 sh gr
/Times-Roman ff 135.00 scf sf
557 1607 m
gs 1 -1 sc (DISELENIDE) col-1 sh gr
/Times-Roman ff 135.00 scf sf
872 2078 m
gs 1 -1 sc (BISULPHIDE) col-1 sh gr
/Times-Roman ff 135.00 scf sf
1186 2550 m
gs 1 -1 sc (DISULPHIDE) col-1 sh gr
/Times-Roman ff 135.00 scf sf
164 1135 m
gs 1 -1 sc (ESSELENIAN) col-1 sh gr
/Times-Roman ff 135.00 scf sf
1894 1607 m
gs 1 -1 sc (DISULPHINE) col-1 sh gr
/Times-Roman ff 135.00 scf sf
557 585 m
gs 1 -1 sc (TROEZENIAN) col-1 sh gr
/Times-Roman ff 135.00 scf sf
1579 1135 m
gs 1 -1 sc (DISULPHONE) col-1 sh gr
/Times-Roman ff 135.00 scf sf
15 1131 m
gs 1 -1 sc (5.) col-1 sh gr
/Times-Roman ff 135.00 scf sf
1410 1123 m
gs 1 -1 sc (6.) col-1 sh gr
/Times-Roman ff 135.00 scf sf
381 1607 m
gs 1 -1 sc (3.) col-1 sh gr
/Times-Roman ff 135.00 scf sf
1725 1607 m
gs 1 -1 sc (4.) col-1 sh gr
/Times-Roman ff 135.00 scf sf
715 2067 m
gs 1 -1 sc (2.) col-1 sh gr
/Times-Roman ff 135.00 scf sf
1033 2542 m
gs 1 -1 sc (1.) col-1 sh gr
/Times-Roman ff 135.00 scf sf
420 585 m
gs 1 -1 sc (7.) col-1 sh gr
% Polyline
gs  clippath
1033 2282 m 969 2176 l 1075 2240 l 961 2125 l 918 2168 l  cp clip
n 1186 2393 m 950 2157 l gs col-1 s gr gr

% arrowhead
n 1033 2282 m 969 2176 l 1075 2240 l  col-1 s
$F2psEnd
rs
