%!PS-Adobe-2.0 EPSF-2.0
%%Title: xdarchive.fig
%%Creator: fig2dev Version 3.1 Patchlevel 2
%%CreationDate: Sat Nov  7 02:45:24 1998
%%For: jmacd@axis.hip.berkeley.edu (Josh)
%%Orientation: Portrait
%%BoundingBox: 0 0 285 182
%%Pages: 0
%%BeginSetup
%%IncludeFeature: *PageSize Letter
%%EndSetup
%Magnification: 1.00
%%EndComments
/MyAppDict 100 dict dup begin def
/$F2psDict 200 dict def
$F2psDict begin
$F2psDict /mtrx matrix put
/col-1 {0 setgray} bind def
/col0 {0.000 0.000 0.000 srgb} bind def
/col1 {0.000 0.000 1.000 srgb} bind def
/col2 {0.000 1.000 0.000 srgb} bind def
/col3 {0.000 1.000 1.000 srgb} bind def
/col4 {1.000 0.000 0.000 srgb} bind def
/col5 {1.000 0.000 1.000 srgb} bind def
/col6 {1.000 1.000 0.000 srgb} bind def
/col7 {1.000 1.000 1.000 srgb} bind def
/col8 {0.000 0.000 0.560 srgb} bind def
/col9 {0.000 0.000 0.690 srgb} bind def
/col10 {0.000 0.000 0.820 srgb} bind def
/col11 {0.530 0.810 1.000 srgb} bind def
/col12 {0.000 0.560 0.000 srgb} bind def
/col13 {0.000 0.690 0.000 srgb} bind def
/col14 {0.000 0.820 0.000 srgb} bind def
/col15 {0.000 0.560 0.560 srgb} bind def
/col16 {0.000 0.690 0.690 srgb} bind def
/col17 {0.000 0.820 0.820 srgb} bind def
/col18 {0.560 0.000 0.000 srgb} bind def
/col19 {0.690 0.000 0.000 srgb} bind def
/col20 {0.820 0.000 0.000 srgb} bind def
/col21 {0.560 0.000 0.560 srgb} bind def
/col22 {0.690 0.000 0.690 srgb} bind def
/col23 {0.820 0.000 0.820 srgb} bind def
/col24 {0.500 0.190 0.000 srgb} bind def
/col25 {0.630 0.250 0.000 srgb} bind def
/col26 {0.750 0.380 0.000 srgb} bind def
/col27 {1.000 0.500 0.500 srgb} bind def
/col28 {1.000 0.630 0.630 srgb} bind def
/col29 {1.000 0.750 0.750 srgb} bind def
/col30 {1.000 0.880 0.880 srgb} bind def
/col31 {1.000 0.840 0.000 srgb} bind def

end
save
0.0 184.0 translate
1 -1 scale
.9 .9 scale % to make patterns same scale as in xfig

% This junk string is used by the show operators
/PATsstr 1 string def
/PATawidthshow { 	% cx cy cchar rx ry string
  % Loop over each character in the string
  {  % cx cy cchar rx ry char
    % Show the character
    dup				% cx cy cchar rx ry char char
    PATsstr dup 0 4 -1 roll put	% cx cy cchar rx ry char (char)
    false charpath		% cx cy cchar rx ry char
    /clip load PATdraw
    % Move past the character (charpath modified the
    % current point)
    currentpoint			% cx cy cchar rx ry char x y
    newpath
    moveto			% cx cy cchar rx ry char
    % Reposition by cx,cy if the character in the string is cchar
    3 index eq {			% cx cy cchar rx ry
      4 index 4 index rmoveto
    } if
    % Reposition all characters by rx ry
    2 copy rmoveto		% cx cy cchar rx ry
  } forall
  pop pop pop pop pop		% -
  currentpoint
  newpath
  moveto
} bind def
/PATcg {
  7 dict dup begin
    /lw currentlinewidth def
    /lc currentlinecap def
    /lj currentlinejoin def
    /ml currentmiterlimit def
    /ds [ currentdash ] def
    /cc [ currentrgbcolor ] def
    /cm matrix currentmatrix def
  end
} bind def
% PATdraw - calculates the boundaries of the object and
% fills it with the current pattern
/PATdraw {			% proc
  save exch
    PATpcalc			% proc nw nh px py
    5 -1 roll exec		% nw nh px py
    newpath
    PATfill			% -
  restore
} bind def
% PATfill - performs the tiling for the shape
/PATfill { % nw nh px py PATfill -
  PATDict /CurrentPattern get dup begin
    setfont
    % Set the coordinate system to Pattern Space
    PatternGState PATsg
    % Set the color for uncolored pattezns
    PaintType 2 eq { PATDict /PColor get PATsc } if
    % Create the string for showing
    3 index string		% nw nh px py str
    % Loop for each of the pattern sources
    0 1 Multi 1 sub {		% nw nh px py str source
	% Move to the starting location
	3 index 3 index		% nw nh px py str source px py
	moveto			% nw nh px py str source
	% For multiple sources, set the appropriate color
	Multi 1 ne { dup PC exch get PATsc } if
	% Set the appropriate string for the source
	0 1 7 index 1 sub { 2 index exch 2 index put } for pop
	% Loop over the number of vertical cells
	3 index 		% nw nh px py str nh
	{			% nw nh px py str
	  currentpoint		% nw nh px py str cx cy
	  2 index show		% nw nh px py str cx cy
	  YStep add moveto	% nw nh px py str
	} repeat		% nw nh px py str
    } for
    5 { pop } repeat
  end
} bind def

% PATkshow - kshow with the current pattezn
/PATkshow {			% proc string
  exch bind			% string proc
  1 index 0 get			% string proc char
  % Loop over all but the last character in the string
  0 1 4 index length 2 sub {
				% string proc char idx
    % Find the n+1th character in the string
    3 index exch 1 add get	% string proe char char+1
    exch 2 copy			% strinq proc char+1 char char+1 char
    % Now show the nth character
    PATsstr dup 0 4 -1 roll put	% string proc chr+1 chr chr+1 (chr)
    false charpath		% string proc char+1 char char+1
    /clip load PATdraw
    % Move past the character (charpath modified the current point)
    currentpoint newpath moveto
    % Execute the user proc (should consume char and char+1)
    mark 3 1 roll		% string proc char+1 mark char char+1
    4 index exec		% string proc char+1 mark...
    cleartomark			% string proc char+1
  } for
  % Now display the last character
  PATsstr dup 0 4 -1 roll put	% string proc (char+1)
  false charpath		% string proc
  /clip load PATdraw
  neewath
  pop pop			% -
} bind def
% PATmp - the makepattern equivalent
/PATmp {			% patdict patmtx PATmp patinstance
  exch dup length 7 add		% We will add 6 new entries plus 1 FID
  dict copy			% Create a new dictionary
  begin
    % Matrix to install when painting the pattern
    TilingType PATtcalc
    /PatternGState PATcg def
    PatternGState /cm 3 -1 roll put
    % Check for multi pattern sources (Level 1 fast color patterns)
    currentdict /Multi known not { /Multi 1 def } if
    % Font dictionary definitions
    /FontType 3 def
    % Create a dummy encoding vector
    /Encoding 256 array def
    3 string 0 1 255 {
      Encoding exch dup 3 index cvs cvn put } for pop
    /FontMatrix matrix def
    /FontBBox BBox def
    /BuildChar {
	mark 3 1 roll		% mark dict char
	exch begin
	Multi 1 ne {PaintData exch get}{pop} ifelse  % mark [paintdata]
	  PaintType 2 eq Multi 1 ne or
	  { XStep 0 FontBBox aload pop setcachedevice }
	  { XStep 0 setcharwidth } ifelse
	  currentdict		% mark [paintdata] dict
	  /PaintProc load	% mark [paintdata] dict paintproc
	end
	gsave
	  false PATredef exec true PATredef
	grestore
	cleartomark		% -
    } bind def
    currentdict
  end				% newdict
  /foo exch			% /foo newlict
  definefont			% newfont
} bind def
% PATpcalc - calculates the starting point and width/height
% of the tile fill for the shape
/PATpcalc {	% - PATpcalc nw nh px py
  PATDict /CurrentPattern get begin
    gsave
	% Set up the coordinate system to Pattern Space
	% and lock down pattern
	PatternGState /cm get setmatrix
	BBox aload pop pop pop translate
	% Determine the bounding box of the shape
	pathbbox			% llx lly urx ury
    grestore
    % Determine (nw, nh) the # of cells to paint width and height
    PatHeight div ceiling		% llx lly urx qh
    4 1 roll				% qh llx lly urx
    PatWidth div ceiling		% qh llx lly qw
    4 1 roll				% qw qh llx lly
    PatHeight div floor			% qw qh llx ph
    4 1 roll				% ph qw qh llx
    PatWidth div floor			% ph qw qh pw
    4 1 roll				% pw ph qw qh
    2 index sub cvi abs			% pw ph qs qh-ph
    exch 3 index sub cvi abs exch	% pw ph nw=qw-pw nh=qh-ph
    % Determine the starting point of the pattern fill
    %(px, py)
    4 2 roll				% nw nh pw ph
    PatHeight mul			% nw nh pw py
    exch				% nw nh py pw
    PatWidth mul exch			% nw nh px py
  end
} bind def

% Save the original routines so that we can use them later on
/oldfill	/fill load def
/oldeofill	/eofill load def
/oldstroke	/stroke load def
/oldshow	/show load def
/oldashow	/ashow load def
/oldwidthshow	/widthshow load def
/oldawidthshow	/awidthshow load def
/oldkshow	/kshow load def

% These defs are necessary so that subsequent procs don't bind in
% the originals
/fill	   { oldfill } bind def
/eofill	   { oldeofill } bind def
/stroke	   { oldstroke } bind def
/show	   { oldshow } bind def
/ashow	   { oldashow } bind def
/widthshow { oldwidthshow } bind def
/awidthshow { oldawidthshow } bind def
/kshow 	   { oldkshow } bind def
/PATredef {
  MyAppDict begin
    {
    /fill { /clip load PATdraw newpath } bind def
    /eofill { /eoclip load PATdraw newpath } bind def
    /stroke { PATstroke } bind def
    /show { 0 0 null 0 0 6 -1 roll PATawidthshow } bind def
    /ashow { 0 0 null 6 3 roll PATawidthshow }
    bind def
    /widthshow { 0 0 3 -1 roll PATawidthshow }
    bind def
    /awidthshow { PATawidthshow } bind def
    /kshow { PATkshow } bind def
  } {
    /fill   { oldfill } bind def
    /eofill { oldeofill } bind def
    /stroke { oldstroke } bind def
    /show   { oldshow } bind def
    /ashow  { oldashow } bind def
    /widthshow { oldwidthshow } bind def
    /awidthshow { oldawidthshow } bind def
    /kshow  { oldkshow } bind def
    } ifelse
  end
} bind def
false PATredef
% Conditionally define setcmykcolor if not available
/setcmykcolor where { pop } {
  /setcmykcolor {
    1 sub 4 1 roll
    3 {
	3 index add neg dup 0 lt { pop 0 } if 3 1 roll
    } repeat
    setrgbcolor - pop
  } bind def
} ifelse
/PATsc {		% colorarray
  aload length		% c1 ... cn length
    dup 1 eq { pop setgray } { 3 eq { setrgbcolor } { setcmykcolor
  } ifelse } ifelse
} bind def
/PATsg {		% dict
  begin
    lw setlinewidth
    lc setlinecap
    lj setlinejoin
    ml setmiterlimit
    ds aload pop setdash
    cc aload pop setrgbcolor
    cm setmatrix
  end
} bind def

/PATDict 3 dict def
/PATsp {
  true PATredef
  PATDict begin
    /CurrentPattern exch def
    % If it's an uncolored pattern, save the color
    CurrentPattern /PaintType get 2 eq {
      /PColor exch def
    } if
    /CColor [ currentrgbcolor ] def
  end
} bind def
% PATstroke - stroke with the current pattern
/PATstroke {
  countdictstack
  save
  mark
  {
    currentpoint strokepath moveto
    PATpcalc				% proc nw nh px py
    clip newpath PATfill
    } stopped {
	(*** PATstroke Warning: Path is too complex, stroking
	  with gray) =
    cleartomark
    restore
    countdictstack exch sub dup 0 gt
	{ { end } repeat } { pop } ifelse
    gsave 0.5 setgray oldstroke grestore
  } { pop restore pop } ifelse
  newpath
} bind def
/PATtcalc {		% modmtx tilingtype PATtcalc tilematrix
  % Note: tiling types 2 and 3 are not supported
  gsave
    exch concat					% tilingtype
    matrix currentmatrix exch			% cmtx tilingtype
    % Tiling type 1 and 3: constant spacing
    2 ne {
	% Distort the pattern so that it occupies
	% an integral number of device pixels
	dup 4 get exch dup 5 get exch		% tx ty cmtx
	XStep 0 dtransform
	round exch round exch			% tx ty cmtx dx.x dx.y
	XStep div exch XStep div exch		% tx ty cmtx a b
	0 YStep dtransform
	round exch round exch			% tx ty cmtx a b dy.x dy.y
	YStep div exch YStep div exch		% tx ty cmtx a b c d
	7 -3 roll astore			% { a b c d tx ty }
    } if
  grestore
} bind def
/PATusp {
  false PATredef
  PATDict begin
    CColor PATsc
  end
} bind def

% this is the pattern fill program from the Second edition Reference Manual
% with changes to call the above pattern fill
% left30
11 dict begin
/PaintType 1 def
/PatternType 1 def
/TilingType 1 def
/BBox [0 0 1 1] def
/XStep 1 def
/YStep 1 def
/PatWidth 1 def
/PatHeight 1 def
/Multi 2 def
/PaintData [
  { clippath } bind
  { 32 16 true [ 32 0 0 -16 0 16 ]
	{<c000c000300030000c000c000300030000c000c000300030
	000c000c00030003c000c000300030000c000c0003000300
	00c000c000300030000c000c00030003>}
     imagemask } bind
] def
/PaintProc {
	pop
	exec fill
} def
currentdict
end
/P1 exch def

% horizontal sawtooth lines
11 dict begin
/PaintType 1 def
/PatternType 1 def
/TilingType 1 def
/BBox [0 0 1 1] def
/XStep 1 def
/YStep 1 def
/PatWidth 1 def
/PatHeight 1 def
/Multi 2 def
/PaintData [
  { clippath } bind
  { 32 16 true [ 32 0 0 -16 0 16 ]
	{<000000000000000000000000000000000000000000000000
	000000000100010002800280044004400820082010101010
	20082008400440048002800200010001>}
     imagemask } bind
] def
/PaintProc {
	pop
	exec fill
} def
currentdict
end
/P21 exch def
1.1111 1.1111 scale %restore scale

/cp {closepath} bind def
/ef {eofill} bind def
/gr {grestore} bind def
/gs {gsave} bind def
/sa {save} bind def
/rs {restore} bind def
/l {lineto} bind def
/m {moveto} bind def
/rm {rmoveto} bind def
/n {newpath} bind def
/s {stroke} bind def
/sh {show} bind def
/slc {setlinecap} bind def
/slj {setlinejoin} bind def
/slw {setlinewidth} bind def
/srgb {setrgbcolor} bind def
/rot {rotate} bind def
/sc {scale} bind def
/sd {setdash} bind def
/ff {findfont} bind def
/sf {setfont} bind def
/scf {scalefont} bind def
/sw {stringwidth} bind def
/tr {translate} bind def
/tnt {dup dup currentrgbcolor
  4 -2 roll dup 1 exch sub 3 -1 roll mul add
  4 -2 roll dup 1 exch sub 3 -1 roll mul add
  4 -2 roll dup 1 exch sub 3 -1 roll mul add srgb}
  bind def
/shd {dup dup currentrgbcolor 4 -2 roll mul 4 -2 roll mul
  4 -2 roll mul srgb} bind def
/$F2psBegin {$F2psDict begin /$F2psEnteredState save def} def
/$F2psEnd {$F2psEnteredState restore end} def
%%EndProlog

$F2psBegin
10 setmiterlimit
n 0 792 m 0 0 l 612 0 l 612 792 l cp clip
 0.06000 0.06000 sc
/Courier ff 165.00 scf sf
3921 3035 m
gs 1 -1 sc (Storage) col-1 sh gr
7.500 slw
% Polyline
 [15 50.0] 50.0 sd
n 101 461 m 1105 461 l 1105 662 l 101 662 l cp gs col-1 s gr  [] 0 sd
% Polyline
 [15 50.0] 50.0 sd
n 101 863 m 1105 863 l 1105 1064 l 101 1064 l cp gs col-1 s gr  [] 0 sd
% Polyline
 [15 50.0] 50.0 sd
n 101 1265 m 1105 1265 l 1105 1466 l 101 1466 l cp gs col-1 s gr  [] 0 sd
% Polyline
 [15 50.0] 50.0 sd
n 101 1668 m 1105 1668 l 1105 1869 l 101 1869 l cp gs col-1 s gr  [] 0 sd
% Polyline
n 101 2472 m 1105 2472 l 1105 2673 l 101 2673 l cp gs col-1 s gr 
% Polyline
n 101 1668 m 1105 1668 l 1105 1869 l 101 1869 l cp gs /PC [[1.00 1.00 1.00] [0.00 0.00 0.00]] def
15.00 15.00 sc P1 [16 0 0 -8 6.73 111.20] PATmp PATsp ef gr PATusp gs col-1 s gr 
% Polyline
n 101 1265 m 1105 1265 l 1105 1466 l 101 1466 l cp gs /PC [[1.00 1.00 1.00] [0.00 0.00 0.00]] def
15.00 15.00 sc P1 [16 0 0 -8 6.73 84.33] PATmp PATsp ef gr PATusp gs col-1 s gr 
% Polyline
n 101 863 m 1105 863 l 1105 1064 l 101 1064 l cp gs /PC [[1.00 1.00 1.00] [0.00 0.00 0.00]] def
15.00 15.00 sc P1 [16 0 0 -8 6.73 57.53] PATmp PATsp ef gr PATusp gs col-1 s gr 
% Polyline
n 101 461 m 1105 461 l 1105 662 l 101 662 l cp gs /PC [[1.00 1.00 1.00] [0.00 0.00 0.00]] def
15.00 15.00 sc P1 [16 0 0 -8 6.73 30.73] PATmp PATsp ef gr PATusp gs col-1 s gr 
% Polyline
n 101 59 m 1105 59 l 1105 260 l 101 260 l cp gs /PC [[1.00 1.00 1.00] [0.00 0.00 0.00]] def
15.00 15.00 sc P1 [16 0 0 -8 6.73 3.93] PATmp PATsp ef gr PATusp gs col-1 s gr 
% Polyline
n 101 2472 m 1105 2472 l 1105 2673 l 101 2673 l cp gs col7 1.00 shd ef gr gs col-1 s gr 
% Polyline
n 101 2472 m 1105 2472 l 1105 2673 l 101 2673 l cp gs /PC [[1.00 1.00 1.00] [0.00 0.00 0.00]] def
15.00 15.00 sc P1 [16 0 0 -8 6.73 164.80] PATmp PATsp ef gr PATusp gs col-1 s gr 
% Polyline
n 101 2070 m 1105 2070 l 1105 2271 l 101 2271 l cp gs /PC [[1.00 1.00 1.00] [0.00 0.00 0.00]] def
15.00 15.00 sc P1 [16 0 0 -8 6.73 138.00] PATmp PATsp ef gr PATusp gs col-1 s gr 
% Polyline
n 1306 59 m 2312 59 l 2312 260 l 1306 260 l cp gs col-1 s gr 
% Polyline
n 1306 461 m 2312 461 l 2312 662 l 1306 662 l cp gs col-1 s gr 
% Polyline
n 1306 863 m 2312 863 l 2312 1064 l 1306 1064 l cp gs col-1 s gr 
% Polyline
n 1306 1265 m 2312 1265 l 2312 1466 l 1306 1466 l cp gs col-1 s gr 
% Polyline
n 1306 1668 m 2312 1668 l 2312 1869 l 1306 1869 l cp gs col-1 s gr 
% Polyline
n 1306 2070 m 2312 2070 l 2312 2271 l 1306 2271 l cp gs col-1 s gr 
% Polyline
n 1306 2472 m 2312 2472 l 2312 2673 l 1306 2673 l cp gs col-1 s gr 
% Polyline
n 2513 59 m 3518 59 l 3518 260 l 2513 260 l cp gs col-1 s gr 
% Polyline
n 2513 461 m 3518 461 l 3518 662 l 2513 662 l cp gs col-1 s gr 
% Polyline
n 2513 863 m 3518 863 l 3518 1064 l 2513 1064 l cp gs col-1 s gr 
% Polyline
n 2513 1265 m 3518 1265 l 3518 1466 l 2513 1466 l cp gs col-1 s gr 
% Polyline
n 2513 1668 m 3518 1668 l 3518 1869 l 2513 1869 l cp gs col-1 s gr 
% Polyline
n 2513 2070 m 3518 2070 l 3518 2271 l 2513 2271 l cp gs col-1 s gr 
% Polyline
n 2513 2472 m 3518 2472 l 3518 2673 l 2513 2673 l cp gs col-1 s gr 
% Polyline
n 1408 59 m 2312 59 l 2312 260 l 1408 260 l cp gs /PC [[1.00 1.00 1.00] [0.00 0.00 0.00]] def
15.00 15.00 sc P1 [16 0 0 -8 93.87 3.93] PATmp PATsp ef gr PATusp gs col-1 s gr 
% Polyline
n 2513 59 m 2614 59 l 2614 260 l 2513 260 l cp gs /PC [[1.00 1.00 1.00] [0.00 0.00 0.00]] def
15.00 15.00 sc P1 [16 0 0 -8 167.53 3.93] PATmp PATsp ef gr PATusp gs col-1 s gr 
% Polyline
n 1408 461 m 1609 461 l 1609 662 l 1408 662 l cp gs /PC [[1.00 1.00 1.00] [0.00 0.00 0.00]] def
15.00 15.00 sc P1 [16 0 0 -8 93.87 30.73] PATmp PATsp ef gr PATusp gs col-1 s gr 
% Polyline
n 1709 461 m 1810 461 l 1810 662 l 1709 662 l cp gs /PC [[1.00 1.00 1.00] [0.00 0.00 0.00]] def
15.00 15.00 sc P1 [16 0 0 -8 113.93 30.73] PATmp PATsp ef gr PATusp gs col-1 s gr 
% Polyline
n 2011 461 m 2312 461 l 2312 662 l 2011 662 l cp gs /PC [[1.00 1.00 1.00] [0.00 0.00 0.00]] def
15.00 15.00 sc P1 [16 0 0 -8 134.07 30.73] PATmp PATsp ef gr PATusp gs col-1 s gr 
% Polyline
n 2513 461 m 2614 461 l 2614 662 l 2513 662 l cp gs /PC [[1.00 1.00 1.00] [0.00 0.00 0.00]] def
15.00 15.00 sc P1 [16 0 0 -8 167.53 30.73] PATmp PATsp ef gr PATusp gs col-1 s gr 
% Polyline
n 2815 461 m 2915 461 l 2915 662 l 2815 662 l cp gs /PC [[1.00 1.00 1.00] [0.00 0.00 0.00]] def
15.00 15.00 sc P1 [16 0 0 -8 187.67 30.73] PATmp PATsp ef gr PATusp gs col-1 s gr 
% Polyline
n 3016 461 m 3218 461 l 3218 662 l 3016 662 l cp gs /PC [[1.00 1.00 1.00] [0.00 0.00 0.00]] def
15.00 15.00 sc P1 [16 0 0 -8 201.07 30.73] PATmp PATsp ef gr PATusp gs col-1 s gr 
% Polyline
n 1306 863 m 1609 863 l 1609 1064 l 1306 1064 l cp gs /PC [[1.00 1.00 1.00] [0.00 0.00 0.00]] def
15.00 15.00 sc P1 [16 0 0 -8 87.07 57.53] PATmp PATsp ef gr PATusp gs col-1 s gr 
% Polyline
n 1709 863 m 1810 863 l 1810 1064 l 1709 1064 l cp gs /PC [[1.00 1.00 1.00] [0.00 0.00 0.00]] def
15.00 15.00 sc P1 [16 0 0 -8 113.93 57.53] PATmp PATsp ef gr PATusp gs col-1 s gr 
% Polyline
n 2011 863 m 2111 863 l 2111 1064 l 2011 1064 l cp gs /PC [[1.00 1.00 1.00] [0.00 0.00 0.00]] def
15.00 15.00 sc P1 [16 0 0 -8 134.07 57.53] PATmp PATsp ef gr PATusp gs col-1 s gr 
% Polyline
n 2212 863 m 2312 863 l 2312 1064 l 2212 1064 l cp gs /PC [[1.00 1.00 1.00] [0.00 0.00 0.00]] def
15.00 15.00 sc P1 [16 0 0 -8 147.47 57.53] PATmp PATsp ef gr PATusp gs col-1 s gr 
% Polyline
n 2815 863 m 2915 863 l 2915 1064 l 2815 1064 l cp gs /PC [[1.00 1.00 1.00] [0.00 0.00 0.00]] def
15.00 15.00 sc P1 [16 0 0 -8 187.67 57.53] PATmp PATsp ef gr PATusp gs col-1 s gr 
% Polyline
n 3016 863 m 3218 863 l 3218 1064 l 3016 1064 l cp gs /PC [[1.00 1.00 1.00] [0.00 0.00 0.00]] def
15.00 15.00 sc P1 [16 0 0 -8 201.07 57.53] PATmp PATsp ef gr PATusp gs col-1 s gr 
% Polyline
n 3317 863 m 3419 863 l 3419 1064 l 3317 1064 l cp gs /PC [[1.00 1.00 1.00] [0.00 0.00 0.00]] def
15.00 15.00 sc P1 [16 0 0 -8 221.13 57.53] PATmp PATsp ef gr PATusp gs col-1 s gr 
% Polyline
n 1910 1265 m 2011 1265 l 2011 1265 l 1910 1265 l cp gs /PC [[1.00 1.00 1.00] [0.00 0.00 0.00]] def
15.00 15.00 sc P1 [16 0 0 -8 127.33 84.33] PATmp PATsp ef gr PATusp gs col-1 s gr 
% Polyline
n 2513 2472 m 3518 2472 l 3518 2673 l 2513 2673 l cp gs /PC [[1.00 1.00 1.00] [0.00 0.00 0.00]] def
15.00 15.00 sc P1 [16 0 0 -8 167.53 164.80] PATmp PATsp ef gr PATusp gs col-1 s gr 
% Polyline
n 1507 1265 m 1609 1265 l 1609 1466 l 1507 1466 l cp gs /PC [[1.00 1.00 1.00] [0.00 0.00 0.00]] def
15.00 15.00 sc P1 [16 0 0 -8 100.47 84.33] PATmp PATsp ef gr PATusp gs col-1 s gr 
% Polyline
n 1709 1265 m 1810 1265 l 1810 1466 l 1709 1466 l cp gs /PC [[1.00 1.00 1.00] [0.00 0.00 0.00]] def
15.00 15.00 sc P1 [16 0 0 -8 113.93 84.33] PATmp PATsp ef gr PATusp gs col-1 s gr 
% Polyline
n 1306 1265 m 1408 1265 l 1408 1466 l 1306 1466 l cp gs /PC [[1.00 1.00 1.00] [0.00 0.00 0.00]] def
15.00 15.00 sc P21 [16 0 0 -8 87.07 84.33] PATmp PATsp ef gr PATusp gs col-1 s gr 
% Polyline
n 2011 1265 m 2111 1265 l 2111 1466 l 2011 1466 l cp gs /PC [[1.00 1.00 1.00] [0.00 0.00 0.00]] def
15.00 15.00 sc P1 [16 0 0 -8 134.07 84.33] PATmp PATsp ef gr PATusp gs col-1 s gr 
% Polyline
n 1609 1265 m 1709 1265 l 1709 1466 l 1609 1466 l cp gs /PC [[1.00 1.00 1.00] [0.00 0.00 0.00]] def
15.00 15.00 sc P21 [16 0 0 -8 107.27 84.33] PATmp PATsp ef gr PATusp gs col-1 s gr 
% Polyline
n 1810 1265 m 2011 1265 l 2011 1466 l 1810 1466 l cp gs /PC [[1.00 1.00 1.00] [0.00 0.00 0.00]] def
15.00 15.00 sc P21 [16 0 0 -8 120.67 84.33] PATmp PATsp ef gr PATusp gs col-1 s gr 
% Polyline
n 1507 1668 m 1609 1668 l 1609 1869 l 1507 1869 l cp gs /PC [[1.00 1.00 1.00] [0.00 0.00 0.00]] def
15.00 15.00 sc P1 [16 0 0 -8 100.47 111.20] PATmp PATsp ef gr PATusp gs col-1 s gr 
% Polyline
n 1709 1668 m 1810 1668 l 1810 1869 l 1709 1869 l cp gs /PC [[1.00 1.00 1.00] [0.00 0.00 0.00]] def
15.00 15.00 sc P1 [16 0 0 -8 113.93 111.20] PATmp PATsp ef gr PATusp gs col-1 s gr 
% Polyline
n 1609 1668 m 1709 1668 l 1709 1869 l 1609 1869 l cp gs /PC [[1.00 1.00 1.00] [0.00 0.00 0.00]] def
15.00 15.00 sc P21 [16 0 0 -8 107.27 111.20] PATmp PATsp ef gr PATusp gs col-1 s gr 
% Polyline
n 1810 1668 m 2011 1668 l 2011 1869 l 1810 1869 l cp gs /PC [[1.00 1.00 1.00] [0.00 0.00 0.00]] def
15.00 15.00 sc P21 [16 0 0 -8 120.67 111.20] PATmp PATsp ef gr PATusp gs col-1 s gr 
% Polyline
n 3218 1668 m 3518 1668 l 3518 1869 l 3218 1869 l cp gs /PC [[1.00 1.00 1.00] [0.00 0.00 0.00]] def
15.00 15.00 sc P1 [16 0 0 -8 214.53 111.20] PATmp PATsp ef gr PATusp gs col-1 s gr 
% Polyline
n 2513 1668 m 2714 1668 l 2714 1869 l 2513 1869 l cp gs /PC [[1.00 1.00 1.00] [0.00 0.00 0.00]] def
15.00 15.00 sc P1 [16 0 0 -8 167.53 111.20] PATmp PATsp ef gr PATusp gs col-1 s gr 
% Polyline
n 3317 1265 m 3518 1265 l 3518 1466 l 3317 1466 l cp gs /PC [[1.00 1.00 1.00] [0.00 0.00 0.00]] def
15.00 15.00 sc P1 [16 0 0 -8 221.13 84.33] PATmp PATsp ef gr PATusp gs col-1 s gr 
% Polyline
n 1306 2070 m 1408 2070 l 1408 2271 l 1306 2271 l cp gs /PC [[1.00 1.00 1.00] [0.00 0.00 0.00]] def
15.00 15.00 sc P21 [16 0 0 -8 87.07 138.00] PATmp PATsp ef gr PATusp gs col-1 s gr 
% Polyline
n 1609 2070 m 1709 2070 l 1709 2271 l 1609 2271 l cp gs /PC [[1.00 1.00 1.00] [0.00 0.00 0.00]] def
15.00 15.00 sc P21 [16 0 0 -8 107.27 138.00] PATmp PATsp ef gr PATusp gs col-1 s gr 
% Polyline
n 1810 2271 m 2011 2271 l 2011 2070 l 1810 2070 l cp gs /PC [[1.00 1.00 1.00] [0.00 0.00 0.00]] def
15.00 15.00 sc P21 [16 0 0 -8 120.67 138.00] PATmp PATsp ef gr PATusp gs col-1 s gr 
% Polyline
n 2111 2070 m 2312 2070 l 2312 2271 l 2111 2271 l cp gs /PC [[1.00 1.00 1.00] [0.00 0.00 0.00]] def
15.00 15.00 sc P21 [16 0 0 -8 140.73 138.00] PATmp PATsp ef gr PATusp gs col-1 s gr 
% Polyline
n 2614 2070 m 2815 2070 l 2815 2271 l 2614 2271 l cp gs /PC [[1.00 1.00 1.00] [0.00 0.00 0.00]] def
15.00 15.00 sc P1 [16 0 0 -8 174.27 138.00] PATmp PATsp ef gr PATusp gs col-1 s gr 
% Polyline
n 2915 2070 m 3016 2070 l 3016 2271 l 2915 2271 l cp gs /PC [[1.00 1.00 1.00] [0.00 0.00 0.00]] def
15.00 15.00 sc P1 [16 0 0 -8 194.33 138.00] PATmp PATsp ef gr PATusp gs col-1 s gr 
% Polyline
n 3218 2070 m 3317 2070 l 3317 2271 l 3218 2271 l cp gs /PC [[1.00 1.00 1.00] [0.00 0.00 0.00]] def
15.00 15.00 sc P1 [16 0 0 -8 214.53 138.00] PATmp PATsp ef gr PATusp gs col-1 s gr 
% Polyline
n 3720 2472 m 4725 2472 l 4725 2673 l 3720 2673 l cp gs /PC [[1.00 1.00 1.00] [0.00 0.00 0.00]] def
15.00 15.00 sc P1 [16 0 0 -8 248.00 164.80] PATmp PATsp ef gr PATusp gs col-1 s gr 
% Polyline
n 3720 2070 m 4122 2070 l 4122 2271 l 3720 2271 l cp gs /PC [[1.00 1.00 1.00] [0.00 0.00 0.00]] def
15.00 15.00 sc P1 [16 0 0 -8 248.00 138.00] PATmp PATsp ef gr PATusp gs col-1 s gr 
% Polyline
n 3720 1869 m 4122 1869 l 4122 1668 l 3720 1668 l cp gs /PC [[1.00 1.00 1.00] [0.00 0.00 0.00]] def
15.00 15.00 sc P1 [16 0 0 -8 248.00 111.20] PATmp PATsp ef gr PATusp gs col-1 s gr 
% Polyline
n 3720 1466 m 3921 1466 l 3921 1265 l 3720 1265 l cp gs /PC [[1.00 1.00 1.00] [0.00 0.00 0.00]] def
15.00 15.00 sc P1 [16 0 0 -8 248.00 84.33] PATmp PATsp ef gr PATusp gs col-1 s gr 
% Polyline
n 3720 1064 m 4122 1064 l 4122 863 l 3720 863 l cp gs /PC [[1.00 1.00 1.00] [0.00 0.00 0.00]] def
15.00 15.00 sc P1 [16 0 0 -8 248.00 57.53] PATmp PATsp ef gr PATusp gs col-1 s gr 
% Polyline
n 3720 662 m 4122 662 l 4122 461 l 3720 461 l cp gs /PC [[1.00 1.00 1.00] [0.00 0.00 0.00]] def
15.00 15.00 sc P1 [16 0 0 -8 248.00 30.73] PATmp PATsp ef gr PATusp gs col-1 s gr 
% Polyline
n 3720 59 m 3820 59 l 3820 260 l 3720 260 l cp gs /PC [[1.00 1.00 1.00] [0.00 0.00 0.00]] def
15.00 15.00 sc P1 [16 0 0 -8 248.00 3.93] PATmp PATsp ef gr PATusp gs col-1 s gr 
/Times-Roman ff 60.00 scf sf
1207 2170 m
gs 1 -1 sc (=) col-1 sh gr
/Times-Roman ff 60.00 scf sf
1207 1768 m
gs 1 -1 sc (=) col-1 sh gr
/Times-Roman ff 60.00 scf sf
1207 1366 m
gs 1 -1 sc (=) col-1 sh gr
/Times-Roman ff 60.00 scf sf
1207 964 m
gs 1 -1 sc (=) col-1 sh gr
/Times-Roman ff 60.00 scf sf
1207 562 m
gs 1 -1 sc (=) col-1 sh gr
/Times-Roman ff 60.00 scf sf
1207 160 m
gs 1 -1 sc (=) col-1 sh gr
/Times-Roman ff 60.00 scf sf
0 160 m
gs 1 -1 sc (F0) col-1 sh gr
/Times-Roman ff 60.00 scf sf
0 562 m
gs 1 -1 sc (F1) col-1 sh gr
/Times-Roman ff 60.00 scf sf
0 964 m
gs 1 -1 sc (F2) col-1 sh gr
/Times-Roman ff 60.00 scf sf
0 1366 m
gs 1 -1 sc (F4) col-1 sh gr
/Times-Roman ff 60.00 scf sf
0 1768 m
gs 1 -1 sc (F5) col-1 sh gr
/Times-Roman ff 60.00 scf sf
0 2170 m
gs 1 -1 sc (F6) col-1 sh gr
/Times-Roman ff 60.00 scf sf
0 2572 m
gs 1 -1 sc (F7) col-1 sh gr
/Times-Roman ff 60.00 scf sf
1207 2572 m
gs 1 -1 sc (=) col-1 sh gr
/Courier ff 165.00 scf sf
101 260 m
gs 1 -1 sc (DISULPHIDE) col-1 sh gr
/Courier ff 165.00 scf sf
101 662 m
gs 1 -1 sc (BISULPHIDE) col-1 sh gr
/Courier ff 165.00 scf sf
101 1064 m
gs 1 -1 sc (DISELENIDE) col-1 sh gr
/Courier ff 165.00 scf sf
101 1466 m
gs 1 -1 sc (DISULPHINE) col-1 sh gr
/Courier ff 165.00 scf sf
101 1869 m
gs 1 -1 sc (ESSELENIAN) col-1 sh gr
/Courier ff 165.00 scf sf
101 2271 m
gs 1 -1 sc (DISULPHONE) col-1 sh gr
/Courier ff 165.00 scf sf
101 2673 m
gs 1 -1 sc (TROEZENIAN) col-1 sh gr
/Courier ff 165.00 scf sf
1408 260 m
gs 1 -1 sc (ISULPHIDE) col-1 sh gr
/Courier ff 165.00 scf sf
2513 260 m
gs 1 -1 sc (D) col-1 sh gr
/Courier ff 165.00 scf sf
1408 662 m
gs 1 -1 sc (IS) col-1 sh gr
/Courier ff 165.00 scf sf
1709 662 m
gs 1 -1 sc (L) col-1 sh gr
/Courier ff 165.00 scf sf
2011 662 m
gs 1 -1 sc (IDE) col-1 sh gr
/Courier ff 165.00 scf sf
2513 662 m
gs 1 -1 sc (B) col-1 sh gr
/Courier ff 165.00 scf sf
2815 662 m
gs 1 -1 sc (U) col-1 sh gr
/Courier ff 165.00 scf sf
3016 662 m
gs 1 -1 sc (PH) col-1 sh gr
/Courier ff 165.00 scf sf
2815 1064 m
gs 1 -1 sc (E EN D) col-1 sh gr
/Courier ff 165.00 scf sf
1306 1064 m
gs 1 -1 sc (DIS L  I E) col-1 sh gr
/Courier ff 165.00 scf sf
2513 2673 m
gs 1 -1 sc (TROEZENIAN) col-1 sh gr
/Courier ff 165.00 scf sf
2513 1869 m
gs 1 -1 sc (ES) col-1 sh gr
/Courier ff 165.00 scf sf
3218 1869 m
gs 1 -1 sc (IAN) col-1 sh gr
/Courier ff 165.00 scf sf
1507 1869 m
gs 1 -1 sc (SELEN) col-1 sh gr
/Courier ff 165.00 scf sf
1306 1466 m
gs 1 -1 sc (DISULPHI) col-1 sh gr
/Courier ff 165.00 scf sf
3317 1466 m
gs 1 -1 sc (NE) col-1 sh gr
/Courier ff 165.00 scf sf
1306 2271 m
gs 1 -1 sc (D  U PH NE) col-1 sh gr
/Courier ff 165.00 scf sf
2513 2271 m
gs 1 -1 sc ( IS U  O) col-1 sh gr
/Courier ff 165.00 scf sf
302 2874 m
gs 1 -1 sc (Actual ) col-1 sh gr
/Courier ff 165.00 scf sf
302 3035 m
gs 1 -1 sc (File) col-1 sh gr
/Courier ff 165.00 scf sf
1507 2874 m
gs 1 -1 sc (Copy) col-1 sh gr
/Courier ff 165.00 scf sf
1507 3035 m
gs 1 -1 sc (Segments) col-1 sh gr
/Courier ff 165.00 scf sf
2714 2849 m
gs 1 -1 sc (Insert) col-1 sh gr
/Courier ff 165.00 scf sf
2714 3010 m
gs 1 -1 sc (Segments) col-1 sh gr
/Courier ff 165.00 scf sf
3921 2874 m
gs 1 -1 sc (Physical) col-1 sh gr
% Polyline
 [15 50.0] 50.0 sd
n 101 59 m 1105 59 l 1105 260 l 101 260 l cp gs col-1 s gr  [] 0 sd
$F2psEnd
rs
end
