%!PS-Adobe-2.0 EPSF-2.0
%%Title: xdelta.fig
%%Creator: fig2dev Version 3.1 Patchlevel 2
%%CreationDate: Mon May  4 03:46:54 1998
%%For: jmacd@icw.EECS.Berkeley.EDU (Josh MacDonald,,,,ARN)
%Magnification: 1.00
%%Orientation: Portrait
%%BoundingBox: 0 0 302 29
%%Pages: 0
%%BeginSetup
%%IncludeFeature: *PageSize Letter
%%EndSetup
%%EndComments
/$F2psDict 200 dict def
$F2psDict begin
$F2psDict /mtrx matrix put
/col-1 {0 setgray} bind def
/col0 {0.000 0.000 0.000 srgb} bind def
/col1 {0.000 0.000 1.000 srgb} bind def
/col2 {0.000 1.000 0.000 srgb} bind def
/col3 {0.000 1.000 1.000 srgb} bind def
/col4 {1.000 0.000 0.000 srgb} bind def
/col5 {1.000 0.000 1.000 srgb} bind def
/col6 {1.000 1.000 0.000 srgb} bind def
/col7 {1.000 1.000 1.000 srgb} bind def
/col8 {0.000 0.000 0.560 srgb} bind def
/col9 {0.000 0.000 0.690 srgb} bind def
/col10 {0.000 0.000 0.820 srgb} bind def
/col11 {0.530 0.810 1.000 srgb} bind def
/col12 {0.000 0.560 0.000 srgb} bind def
/col13 {0.000 0.690 0.000 srgb} bind def
/col14 {0.000 0.820 0.000 srgb} bind def
/col15 {0.000 0.560 0.560 srgb} bind def
/col16 {0.000 0.690 0.690 srgb} bind def
/col17 {0.000 0.820 0.820 srgb} bind def
/col18 {0.560 0.000 0.000 srgb} bind def
/col19 {0.690 0.000 0.000 srgb} bind def
/col20 {0.820 0.000 0.000 srgb} bind def
/col21 {0.560 0.000 0.560 srgb} bind def
/col22 {0.690 0.000 0.690 srgb} bind def
/col23 {0.820 0.000 0.820 srgb} bind def
/col24 {0.500 0.190 0.000 srgb} bind def
/col25 {0.630 0.250 0.000 srgb} bind def
/col26 {0.750 0.380 0.000 srgb} bind def
/col27 {1.000 0.500 0.500 srgb} bind def
/col28 {1.000 0.630 0.630 srgb} bind def
/col29 {1.000 0.750 0.750 srgb} bind def
/col30 {1.000 0.880 0.880 srgb} bind def
/col31 {1.000 0.840 0.000 srgb} bind def

end
save
-8.0 39.0 translate
1 -1 scale

/cp {closepath} bind def
/ef {eofill} bind def
/gr {grestore} bind def
/gs {gsave} bind def
/sa {save} bind def
/rs {restore} bind def
/l {lineto} bind def
/m {moveto} bind def
/rm {rmoveto} bind def
/n {newpath} bind def
/s {stroke} bind def
/sh {show} bind def
/slc {setlinecap} bind def
/slj {setlinejoin} bind def
/slw {setlinewidth} bind def
/srgb {setrgbcolor} bind def
/rot {rotate} bind def
/sc {scale} bind def
/sd {setdash} bind def
/ff {findfont} bind def
/sf {setfont} bind def
/scf {scalefont} bind def
/sw {stringwidth} bind def
/tr {translate} bind def
/tnt {dup dup currentrgbcolor
  4 -2 roll dup 1 exch sub 3 -1 roll mul add
  4 -2 roll dup 1 exch sub 3 -1 roll mul add
  4 -2 roll dup 1 exch sub 3 -1 roll mul add srgb}
  bind def
/shd {dup dup currentrgbcolor 4 -2 roll mul 4 -2 roll mul
  4 -2 roll mul srgb} bind def
 /DrawEllipse {
	/endangle exch def
	/startangle exch def
	/yrad exch def
	/xrad exch def
	/y exch def
	/x exch def
	/savematrix mtrx currentmatrix def
	x y tr xrad yrad sc 0 0 1 startangle endangle arc
	closepath
	savematrix setmatrix
	} def

/$F2psBegin {$F2psDict begin /$F2psEnteredState save def} def
/$F2psEnd {$F2psEnteredState restore end} def
%%EndProlog

$F2psBegin
10 setmiterlimit
n 0 792 m 0 0 l 612 0 l 612 792 l cp clip
 0.06000 0.06000 sc
7.500 slw
% Rotated Ellipse
gs
265 433 tr
-90.000 rot
n 0 0 54 54 0 360 DrawEllipse gs col7 0.00 shd ef gr gs col-1 s gr
gr

% Rotated Ellipse
gs
1432 435 tr
-90.000 rot
n 0 0 54 54 0 360 DrawEllipse gs col7 0.00 shd ef gr gs col-1 s gr
gr

% Rotated Ellipse
gs
2632 435 tr
-90.000 rot
n 0 0 54 54 0 360 DrawEllipse gs col7 0.00 shd ef gr gs col-1 s gr
gr

% Rotated Ellipse
gs
3832 427 tr
-90.000 rot
n 0 0 54 54 0 360 DrawEllipse gs col7 0.00 shd ef gr gs col-1 s gr
gr

% Rotated Ellipse
gs
5039 428 tr
-90.000 rot
n 0 0 54 54 0 360 DrawEllipse gs col7 0.00 shd ef gr gs col-1 s gr
gr

% Polyline
gs  clippath
4825 390 m 4945 420 l 4825 450 l 4987 450 l 4987 390 l  cp clip
n 4972 420 m 3847 420 l gs col7 0.00 shd ef gr gs col-1 s gr gr

% arrowhead
n 4825 390 m 4945 420 l 4825 450 l 4825 420 l 4825 390 l  cp gs 0.00 setgray ef gr  col-1 s
% Polyline
gs  clippath
3625 390 m 3745 420 l 3625 450 l 3787 450 l 3787 390 l  cp clip
n 3772 420 m 2647 420 l gs col7 0.00 shd ef gr gs col-1 s gr gr

% arrowhead
n 3625 390 m 3745 420 l 3625 450 l 3625 420 l 3625 390 l  cp gs 0.00 setgray ef gr  col-1 s
% Polyline
gs  clippath
2425 390 m 2545 420 l 2425 450 l 2587 450 l 2587 390 l  cp clip
n 2572 420 m 1447 420 l gs col7 0.00 shd ef gr gs col-1 s gr gr

% arrowhead
n 2425 390 m 2545 420 l 2425 450 l 2425 420 l 2425 390 l  cp gs 0.00 setgray ef gr  col-1 s
% Polyline
gs  clippath
1225 390 m 1345 420 l 1225 450 l 1387 450 l 1387 390 l  cp clip
n 1372 420 m 247 420 l gs col7 0.00 shd ef gr gs col-1 s gr gr

% arrowhead
n 1225 390 m 1345 420 l 1225 450 l 1225 420 l 1225 390 l  cp gs 0.00 setgray ef gr  col-1 s
/Times-Roman ff 180.00 scf sf
1957 615 m
gs 1 -1 sc (d3) col-1 sh gr
/Times-Roman ff 180.00 scf sf
750 607 m
gs 1 -1 sc (d4) col-1 sh gr
/Times-Roman ff 180.00 scf sf
3157 607 m
gs 1 -1 sc (d2) col-1 sh gr
/Times-Roman ff 180.00 scf sf
4349 608 m
gs 1 -1 sc (d1) col-1 sh gr
/Times-Roman ff 180.00 scf sf
2527 277 m
gs 1 -1 sc (1.2) col-1 sh gr
/Times-Roman ff 180.00 scf sf
1200 286 m
gs 1 -1 sc (1.1.1.2) col-1 sh gr
/Times-Roman ff 180.00 scf sf
135 285 m
gs 1 -1 sc (1.3) col-1 sh gr
/Times-Roman ff 180.00 scf sf
3599 285 m
gs 1 -1 sc (1.1.1.1) col-1 sh gr
/Times-Roman ff 180.00 scf sf
4934 293 m
gs 1 -1 sc (1.1) col-1 sh gr
$F2psEnd
rs
